<!--This work is licensed under a Creative Commons Attribution-ShareAlike 4.0 International License (CC BY-SA) with Design Exception 1.0-->
<eagle version="7.1.0">
<drawing>
<settings>
<setting alwaysvectorfont="no"/>
<setting verticaltext="up"/>
</settings>
<grid distance="0.1" unitdist="inch" unit="inch" style="lines" multiple="1" display="no" altdistance="0.01" altunitdist="inch" altunit="inch"/>
<layers>
<layer number="1" name="Top" color="4" fill="1" visible="yes" active="yes"/>
<layer number="16" name="Bottom" color="1" fill="1" visible="yes" active="yes"/>
<layer number="17" name="Pads" color="2" fill="1" visible="yes" active="yes"/>
<layer number="18" name="Vias" color="2" fill="1" visible="yes" active="yes"/>
<layer number="19" name="Unrouted" color="6" fill="1" visible="yes" active="yes"/>
<layer number="20" name="Dimension" color="15" fill="1" visible="yes" active="yes"/>
<layer number="21" name="tPlace" color="7" fill="1" visible="yes" active="yes"/>
<layer number="22" name="bPlace" color="7" fill="1" visible="yes" active="yes"/>
<layer number="23" name="tOrigins" color="15" fill="1" visible="yes" active="yes"/>
<layer number="24" name="bOrigins" color="15" fill="1" visible="yes" active="yes"/>
<layer number="25" name="tNames" color="7" fill="1" visible="yes" active="yes"/>
<layer number="26" name="bNames" color="7" fill="1" visible="yes" active="yes"/>
<layer number="27" name="tValues" color="7" fill="1" visible="yes" active="yes"/>
<layer number="28" name="bValues" color="7" fill="1" visible="yes" active="yes"/>
<layer number="29" name="tStop" color="7" fill="3" visible="yes" active="yes"/>
<layer number="30" name="bStop" color="7" fill="6" visible="no" active="yes"/>
<layer number="31" name="tCream" color="7" fill="4" visible="yes" active="yes"/>
<layer number="32" name="bCream" color="7" fill="5" visible="no" active="yes"/>
<layer number="33" name="tFinish" color="6" fill="3" visible="no" active="yes"/>
<layer number="34" name="bFinish" color="6" fill="6" visible="no" active="yes"/>
<layer number="35" name="tGlue" color="7" fill="4" visible="no" active="yes"/>
<layer number="36" name="bGlue" color="7" fill="5" visible="no" active="yes"/>
<layer number="37" name="tTest" color="7" fill="1" visible="no" active="yes"/>
<layer number="38" name="bTest" color="7" fill="1" visible="no" active="yes"/>
<layer number="39" name="tKeepout" color="4" fill="11" visible="yes" active="yes"/>
<layer number="40" name="bKeepout" color="1" fill="11" visible="yes" active="yes"/>
<layer number="41" name="tRestrict" color="4" fill="10" visible="yes" active="yes"/>
<layer number="42" name="bRestrict" color="1" fill="10" visible="yes" active="yes"/>
<layer number="43" name="vRestrict" color="2" fill="10" visible="yes" active="yes"/>
<layer number="44" name="Drills" color="7" fill="1" visible="no" active="yes"/>
<layer number="45" name="Holes" color="7" fill="1" visible="no" active="yes"/>
<layer number="46" name="Milling" color="3" fill="1" visible="no" active="yes"/>
<layer number="47" name="Measures" color="7" fill="1" visible="no" active="yes"/>
<layer number="48" name="Document" color="7" fill="1" visible="yes" active="yes"/>
<layer number="49" name="Reference" color="7" fill="1" visible="yes" active="yes"/>
<layer number="51" name="tDocu" color="7" fill="1" visible="yes" active="yes"/>
<layer number="52" name="bDocu" color="7" fill="1" visible="yes" active="yes"/>
<layer number="90" name="Modules" color="5" fill="1" visible="yes" active="yes"/>
<layer number="91" name="Nets" color="2" fill="1" visible="yes" active="yes"/>
<layer number="92" name="Busses" color="1" fill="1" visible="yes" active="yes"/>
<layer number="93" name="Pins" color="2" fill="1" visible="yes" active="yes"/>
<layer number="94" name="Symbols" color="4" fill="1" visible="yes" active="yes"/>
<layer number="95" name="Names" color="7" fill="1" visible="yes" active="yes"/>
<layer number="96" name="Values" color="7" fill="1" visible="yes" active="yes"/>
<layer number="97" name="Info" color="7" fill="1" visible="yes" active="yes"/>
<layer number="98" name="Guide" color="6" fill="1" visible="yes" active="yes"/>
</layers>
<library>
<packages>
<package name="TE_2-1437667-4">
<wire x1="-5.08" y1="-10.414" x2="-5.08" y2="2.286" width="0.127" layer="51"/>
<wire x1="-5.08" y1="2.286" x2="13.081" y2="2.286" width="0.127" layer="51"/>
<wire x1="13.081" y1="2.286" x2="13.081" y2="-10.414" width="0.127" layer="51"/>
<wire x1="13.081" y1="-10.414" x2="-5.08" y2="-10.414" width="0.127" layer="51"/>
<wire x1="-5.08" y1="-10.414" x2="-5.08" y2="2.286" width="0.127" layer="21"/>
<wire x1="13.081" y1="2.286" x2="13.081" y2="-10.414" width="0.127" layer="21"/>
<wire x1="-5.08" y1="2.286" x2="13.081" y2="2.286" width="0.127" layer="21"/>
<wire x1="13.081" y1="-10.414" x2="-5.08" y2="-10.414" width="0.127" layer="21"/>
<wire x1="-5.33" y1="2.536" x2="13.331" y2="2.536" width="0.05" layer="39"/>
<wire x1="13.331" y1="-10.664" x2="-5.33" y2="-10.664" width="0.05" layer="39"/>
<wire x1="-5.33" y1="-10.664" x2="-5.33" y2="2.536" width="0.05" layer="39"/>
<wire x1="13.331" y1="2.536" x2="13.331" y2="-10.664" width="0.05" layer="39"/>
<text x="-6.08" y="3.29" size="1.27" layer="25">&gt;NAME</text>
<text x="-6.08" y="-12.66" size="1.27" layer="27">&gt;VALUE</text>
<circle x="0" y="2.89" radius="0.1" width="0.2" layer="21"/>
<circle x="0" y="2.89" radius="0.1" width="0.2" layer="51"/>
<pad name="1" x="0" y="0" drill="1.8288" shape="square"/>
<pad name="2" x="8.255" y="0" drill="1.8288"/>
</package>
</packages>
<symbols>
<symbol name="2-1437667-4">
<wire x1="-5.08" y1="-5.08" x2="-5.08" y2="2.54" width="0.254" layer="94"/>
<wire x1="-5.08" y1="2.54" x2="5.08" y2="2.54" width="0.254" layer="94"/>
<wire x1="5.08" y1="2.54" x2="5.08" y2="-5.08" width="0.254" layer="94"/>
<wire x1="5.08" y1="-5.08" x2="-5.08" y2="-5.08" width="0.254" layer="94"/>
<text x="-5.58" y="2.54" size="1.778" layer="95">&gt;NAME</text>
<text x="-5.08" y="-7.62" size="1.778" layer="96">&gt;VALUE</text>
<pin name="1" x="-10.16" y="0" length="middle" direction="pas"/>
<pin name="2" x="-10.16" y="-2.54" length="middle" direction="pas"/>
</symbol>
</symbols>
<devicesets>
<deviceset name="2-1437667-4" prefix="J">
<description>Conn; Term Strip; Barrier; 2Pole; 8.26mmPitch; SnglRow; 22-12; Series 4DB; 20A; 150V &lt;a href="https://pricing.snapeda.com/parts/2-1437667-4/TE%20Connectivity/view-part?ref=eda"&gt;Check prices&lt;/a&gt;</description>
<gates>
<gate name="G$1" symbol="2-1437667-4" x="0" y="0"/>
</gates>
<devices>
<device name="" package="TE_2-1437667-4">
<connects>
<connect gate="G$1" pin="1" pad="1"/>
<connect gate="G$1" pin="2" pad="2"/>
</connects>
<technologies>
<technology name="">
<attribute name="Description" value="
2 Circuit 0.325 (8.26mm) Barrier Block Connector, Screws with Captive Plate
"/>
<attribute name="Price" value="None"/>
<attribute name="MP" value="2-1437667-4"/>
<attribute name="Comment" value="2-1437667-4"/>
<attribute name="Availability" value="Warning"/>
<attribute name="EU_RoHS_Compliance" value="Compliant"/>
<attribute name="MF" value="TE Connectivity"/>
<attribute name="Package" value="None"/>
</technology>
</technologies>
</device>
</devices>
</deviceset>
</devicesets>
</library>
</drawing>
</eagle>
