<?xml version="1.0" encoding="utf-8"?>
<!DOCTYPE eagle SYSTEM "eagle.dtd">
<eagle version="9.6.2">
<drawing>
<settings>
<setting alwaysvectorfont="no"/>
<setting verticaltext="up"/>
</settings>
<grid distance="0.1" unitdist="inch" unit="inch" style="lines" multiple="1" display="no" altdistance="0.01" altunitdist="inch" altunit="inch"/>
<layers>
<layer number="1" name="Top" color="4" fill="1" visible="yes" active="yes"/>
<layer number="2" name="Route2" color="16" fill="1" visible="no" active="yes"/>
<layer number="3" name="Route3" color="17" fill="1" visible="no" active="yes"/>
<layer number="4" name="Route4" color="18" fill="1" visible="no" active="yes"/>
<layer number="5" name="Route5" color="19" fill="1" visible="no" active="yes"/>
<layer number="6" name="Route6" color="25" fill="1" visible="no" active="yes"/>
<layer number="7" name="Route7" color="26" fill="1" visible="no" active="yes"/>
<layer number="8" name="Route8" color="27" fill="1" visible="no" active="yes"/>
<layer number="9" name="Route9" color="28" fill="1" visible="no" active="yes"/>
<layer number="10" name="Route10" color="29" fill="1" visible="no" active="yes"/>
<layer number="11" name="Route11" color="30" fill="1" visible="no" active="yes"/>
<layer number="12" name="Route12" color="20" fill="1" visible="no" active="yes"/>
<layer number="13" name="Route13" color="21" fill="1" visible="no" active="yes"/>
<layer number="14" name="Route14" color="22" fill="1" visible="no" active="yes"/>
<layer number="15" name="Route15" color="23" fill="1" visible="no" active="yes"/>
<layer number="16" name="Bottom" color="1" fill="1" visible="yes" active="yes"/>
<layer number="17" name="Pads" color="2" fill="1" visible="yes" active="yes"/>
<layer number="18" name="Vias" color="2" fill="1" visible="yes" active="yes"/>
<layer number="19" name="Unrouted" color="6" fill="1" visible="yes" active="yes"/>
<layer number="20" name="Dimension" color="24" fill="1" visible="yes" active="yes"/>
<layer number="21" name="tPlace" color="7" fill="1" visible="yes" active="yes"/>
<layer number="22" name="bPlace" color="7" fill="1" visible="yes" active="yes"/>
<layer number="23" name="tOrigins" color="15" fill="1" visible="yes" active="yes"/>
<layer number="24" name="bOrigins" color="15" fill="1" visible="yes" active="yes"/>
<layer number="25" name="tNames" color="7" fill="1" visible="yes" active="yes"/>
<layer number="26" name="bNames" color="7" fill="1" visible="yes" active="yes"/>
<layer number="27" name="tValues" color="7" fill="1" visible="yes" active="yes"/>
<layer number="28" name="bValues" color="7" fill="1" visible="yes" active="yes"/>
<layer number="29" name="tStop" color="7" fill="3" visible="no" active="yes"/>
<layer number="30" name="bStop" color="7" fill="6" visible="no" active="yes"/>
<layer number="31" name="tCream" color="7" fill="4" visible="no" active="yes"/>
<layer number="32" name="bCream" color="7" fill="5" visible="no" active="yes"/>
<layer number="33" name="tFinish" color="6" fill="3" visible="no" active="yes"/>
<layer number="34" name="bFinish" color="6" fill="6" visible="no" active="yes"/>
<layer number="35" name="tGlue" color="7" fill="4" visible="no" active="yes"/>
<layer number="36" name="bGlue" color="7" fill="5" visible="no" active="yes"/>
<layer number="37" name="tTest" color="7" fill="1" visible="no" active="yes"/>
<layer number="38" name="bTest" color="7" fill="1" visible="no" active="yes"/>
<layer number="39" name="tKeepout" color="4" fill="11" visible="yes" active="yes"/>
<layer number="40" name="bKeepout" color="1" fill="11" visible="yes" active="yes"/>
<layer number="41" name="tRestrict" color="4" fill="10" visible="yes" active="yes"/>
<layer number="42" name="bRestrict" color="1" fill="10" visible="yes" active="yes"/>
<layer number="43" name="vRestrict" color="2" fill="10" visible="yes" active="yes"/>
<layer number="44" name="Drills" color="7" fill="1" visible="no" active="yes"/>
<layer number="45" name="Holes" color="7" fill="1" visible="no" active="yes"/>
<layer number="46" name="Milling" color="3" fill="1" visible="no" active="yes"/>
<layer number="47" name="Measures" color="7" fill="1" visible="no" active="yes"/>
<layer number="48" name="Document" color="7" fill="1" visible="yes" active="yes"/>
<layer number="49" name="Reference" color="7" fill="1" visible="yes" active="yes"/>
<layer number="51" name="tDocu" color="7" fill="1" visible="yes" active="yes"/>
<layer number="52" name="bDocu" color="7" fill="1" visible="yes" active="yes"/>
<layer number="88" name="SimResults" color="9" fill="1" visible="yes" active="yes"/>
<layer number="89" name="SimProbes" color="9" fill="1" visible="yes" active="yes"/>
<layer number="90" name="Modules" color="5" fill="1" visible="yes" active="yes"/>
<layer number="91" name="Nets" color="2" fill="1" visible="yes" active="yes"/>
<layer number="92" name="Busses" color="1" fill="1" visible="yes" active="yes"/>
<layer number="93" name="Pins" color="2" fill="1" visible="yes" active="yes"/>
<layer number="94" name="Symbols" color="4" fill="1" visible="yes" active="yes"/>
<layer number="95" name="Names" color="7" fill="1" visible="yes" active="yes"/>
<layer number="96" name="Values" color="7" fill="1" visible="yes" active="yes"/>
<layer number="97" name="Info" color="7" fill="1" visible="yes" active="yes"/>
<layer number="98" name="Guide" color="6" fill="1" visible="yes" active="yes"/>
</layers>
<library>
<packages>
<package name="DIP1270W53P254L1303H508Q8B" urn="urn:adsk.eagle:footprint:23793155/1" locally_modified="yes">
<description>8-DIP, 2.54 mm (0.10 in) pitch, 12.70 mm (0.50 in) span, 13.03 X 6.60 X 5.08 mm body
&lt;p&gt;8-pin DIP package with 2.54 mm (0.10 in) pitch, 12.70 mm (0.50 in) span with body size 13.03 X 6.60 X 5.08 mm&lt;/p&gt;</description>
<circle x="-7.5257" y="3.81" radius="0.25" width="0" layer="21"/>
<wire x1="-3.3" y1="4.7357" x2="-3.3" y2="6.515" width="0.12" layer="21"/>
<wire x1="-3.3" y1="6.515" x2="3.3" y2="6.515" width="0.12" layer="21"/>
<wire x1="3.3" y1="6.515" x2="3.3" y2="4.7357" width="0.12" layer="21"/>
<wire x1="-3.3" y1="-4.7357" x2="-3.3" y2="-6.515" width="0.12" layer="21"/>
<wire x1="-3.3" y1="-6.515" x2="3.3" y2="-6.515" width="0.12" layer="21"/>
<wire x1="3.3" y1="-6.515" x2="3.3" y2="-4.7357" width="0.12" layer="21"/>
<wire x1="3.3" y1="-6.515" x2="-3.3" y2="-6.515" width="0.12" layer="51"/>
<wire x1="-3.3" y1="-6.515" x2="-3.3" y2="6.515" width="0.12" layer="51"/>
<wire x1="-3.3" y1="6.515" x2="3.3" y2="6.515" width="0.12" layer="51"/>
<wire x1="3.3" y1="6.515" x2="3.3" y2="-6.515" width="0.12" layer="51"/>
<pad name="GND" x="-6.35" y="3.81" drill="0.7434" diameter="1.3434"/>
<pad name="VSUPPLY" x="-6.35" y="1.27" drill="0.7434" diameter="1.3434"/>
<pad name="MISO" x="-6.35" y="-1.27" drill="0.7434" diameter="1.3434"/>
<pad name="SCLK" x="-6.35" y="-3.81" drill="0.7434" diameter="1.3434"/>
<pad name="SS" x="6.35" y="-3.81" drill="0.7434" diameter="1.3434"/>
<pad name="6" x="6.35" y="-1.27" drill="0.7434" diameter="1.3434"/>
<pad name="7" x="6.35" y="1.27" drill="0.7434" diameter="1.3434"/>
<pad name="8" x="6.35" y="3.81" drill="0.7434" diameter="1.3434"/>
<text x="0" y="-8.09" size="1.27" layer="25" align="bottom-center">100MDSA3</text>
<wire x1="-2.54" y1="6.35" x2="-2.54" y2="10.16" width="0.127" layer="21"/>
<wire x1="-2.54" y1="10.16" x2="-1.27" y2="10.16" width="0.127" layer="21"/>
<wire x1="-1.27" y1="10.16" x2="-1.27" y2="6.35" width="0.127" layer="21"/>
<wire x1="2.54" y1="6.35" x2="2.54" y2="10.16" width="0.127" layer="21"/>
<wire x1="2.54" y1="10.16" x2="1.27" y2="10.16" width="0.127" layer="21"/>
<wire x1="1.27" y1="10.16" x2="1.27" y2="6.35" width="0.127" layer="21"/>
</package>
</packages>
<packages3d>
<package3d name="DIP1270W53P254L1303H508Q8B" urn="urn:adsk.eagle:package:23793141/1" type="model">
<description>8-DIP, 2.54 mm (0.10 in) pitch, 12.70 mm (0.50 in) span, 13.03 X 6.60 X 5.08 mm body
&lt;p&gt;8-pin DIP package with 2.54 mm (0.10 in) pitch, 12.70 mm (0.50 in) span with body size 13.03 X 6.60 X 5.08 mm&lt;/p&gt;</description>
<packageinstances>
<packageinstance name="DIP1270W53P254L1303H508Q8B"/>
</packageinstances>
</package3d>
</packages3d>
<symbols>
<symbol name="SCCDRRV100MDSA3">
<pin name="GND" x="-5.08" y="0" length="middle"/>
<pin name="VSUPPLY" x="-5.08" y="2.54" length="middle"/>
<pin name="MISO" x="-5.08" y="5.08" length="middle"/>
<pin name="SCLK" x="-5.08" y="7.62" length="middle"/>
<pin name="SS" x="-5.08" y="10.16" length="middle"/>
<wire x1="0" y1="12.7" x2="0" y2="-2.54" width="0.254" layer="94"/>
<wire x1="0" y1="-2.54" x2="15.24" y2="-2.54" width="0.254" layer="94"/>
<wire x1="15.24" y1="-2.54" x2="15.24" y2="12.7" width="0.254" layer="94"/>
<wire x1="15.24" y1="12.7" x2="0" y2="12.7" width="0.254" layer="94"/>
</symbol>
</symbols>
<devicesets>
<deviceset name="SCCDRRV100MDSA3">
<gates>
<gate name="G$1" symbol="SCCDRRV100MDSA3" x="-7.62" y="-5.08"/>
</gates>
<devices>
<device name="SSCDRRV100MDSA3" package="DIP1270W53P254L1303H508Q8B">
<connects>
<connect gate="G$1" pin="GND" pad="GND"/>
<connect gate="G$1" pin="MISO" pad="MISO"/>
<connect gate="G$1" pin="SCLK" pad="SCLK"/>
<connect gate="G$1" pin="SS" pad="SS"/>
<connect gate="G$1" pin="VSUPPLY" pad="VSUPPLY"/>
</connects>
<package3dinstances>
<package3dinstance package3d_urn="urn:adsk.eagle:package:23793141/1"/>
</package3dinstances>
<technologies>
<technology name=""/>
</technologies>
</device>
</devices>
</deviceset>
</devicesets>
</library>
</drawing>
<compatibility>
<note version="8.3" severity="warning">
Since Version 8.3, EAGLE supports URNs for individual library
assets (packages, symbols, and devices). The URNs of those assets
will not be understood (or retained) with this version.
</note>
<note version="8.3" severity="warning">
Since Version 8.3, EAGLE supports the association of 3D packages
with devices in libraries, schematics, and board files. Those 3D
packages will not be understood (or retained) with this version.
</note>
</compatibility>
</eagle>
