%TF.GenerationSoftware,KiCad,Pcbnew,5.1.9-73d0e3b20d~88~ubuntu20.04.1*%
%TF.CreationDate,2021-02-18T23:08:47+00:00*%
%TF.ProjectId,pv-air-1_A,70762d61-6972-42d3-915f-412e6b696361,rev?*%
%TF.SameCoordinates,Original*%
%TF.FileFunction,Profile,NP*%
%FSLAX46Y46*%
G04 Gerber Fmt 4.6, Leading zero omitted, Abs format (unit mm)*
G04 Created by KiCad (PCBNEW 5.1.9-73d0e3b20d~88~ubuntu20.04.1) date 2021-02-18 23:08:47*
%MOMM*%
%LPD*%
G01*
G04 APERTURE LIST*
%TA.AperFunction,Profile*%
%ADD10C,0.050000*%
%TD*%
G04 APERTURE END LIST*
D10*
X100012500Y-82232500D02*
X100012500Y-115951000D01*
X100012500Y-115951000D02*
X159258000Y-115951000D01*
X159258000Y-82232500D02*
X159258000Y-115951000D01*
X100012500Y-82232500D02*
X159258000Y-82232500D01*
M02*
