%TF.GenerationSoftware,KiCad,Pcbnew,5.1.9-73d0e3b20d~88~ubuntu20.04.1*%
%TF.CreationDate,2021-02-18T23:08:47+00:00*%
%TF.ProjectId,pv-air-1_A,70762d61-6972-42d3-915f-412e6b696361,rev?*%
%TF.SameCoordinates,Original*%
%TF.FileFunction,Copper,L2,Bot*%
%TF.FilePolarity,Positive*%
%FSLAX46Y46*%
G04 Gerber Fmt 4.6, Leading zero omitted, Abs format (unit mm)*
G04 Created by KiCad (PCBNEW 5.1.9-73d0e3b20d~88~ubuntu20.04.1) date 2021-02-18 23:08:47*
%MOMM*%
%LPD*%
G01*
G04 APERTURE LIST*
%TA.AperFunction,ComponentPad*%
%ADD10O,1.700000X1.950000*%
%TD*%
%TA.AperFunction,ComponentPad*%
%ADD11O,1.950000X1.700000*%
%TD*%
%TA.AperFunction,ComponentPad*%
%ADD12C,7.000000*%
%TD*%
%TA.AperFunction,ComponentPad*%
%ADD13C,0.800000*%
%TD*%
%TA.AperFunction,ViaPad*%
%ADD14C,0.800000*%
%TD*%
%TA.AperFunction,Conductor*%
%ADD15C,0.600000*%
%TD*%
%TA.AperFunction,Conductor*%
%ADD16C,0.350000*%
%TD*%
%TA.AperFunction,Conductor*%
%ADD17C,0.250000*%
%TD*%
%TA.AperFunction,Conductor*%
%ADD18C,0.400000*%
%TD*%
%TA.AperFunction,Conductor*%
%ADD19C,0.254000*%
%TD*%
%TA.AperFunction,Conductor*%
%ADD20C,0.100000*%
%TD*%
G04 APERTURE END LIST*
%TO.P,J3,1*%
%TO.N,GND*%
%TA.AperFunction,ComponentPad*%
G36*
G01*
X146328500Y-111860500D02*
X146328500Y-113310500D01*
G75*
G02*
X146078500Y-113560500I-250000J0D01*
G01*
X144878500Y-113560500D01*
G75*
G02*
X144628500Y-113310500I0J250000D01*
G01*
X144628500Y-111860500D01*
G75*
G02*
X144878500Y-111610500I250000J0D01*
G01*
X146078500Y-111610500D01*
G75*
G02*
X146328500Y-111860500I0J-250000D01*
G01*
G37*
%TD.AperFunction*%
D10*
%TO.P,J3,2*%
%TO.N,+5V*%
X142978500Y-112585500D03*
%TO.P,J3,3*%
%TO.N,Net-(J3-Pad3)*%
X140478500Y-112585500D03*
%TO.P,J3,4*%
%TO.N,Net-(J3-Pad4)*%
X137978500Y-112585500D03*
%TO.P,J3,5*%
%TO.N,Net-(J3-Pad5)*%
X135478500Y-112585500D03*
%TO.P,J3,6*%
%TO.N,/RESET*%
X132978500Y-112585500D03*
%TD*%
%TO.P,J4,1*%
%TO.N,Net-(C4-Pad1)*%
%TA.AperFunction,ComponentPad*%
G36*
G01*
X136105000Y-85889000D02*
X136105000Y-87339000D01*
G75*
G02*
X135855000Y-87589000I-250000J0D01*
G01*
X134655000Y-87589000D01*
G75*
G02*
X134405000Y-87339000I0J250000D01*
G01*
X134405000Y-85889000D01*
G75*
G02*
X134655000Y-85639000I250000J0D01*
G01*
X135855000Y-85639000D01*
G75*
G02*
X136105000Y-85889000I0J-250000D01*
G01*
G37*
%TD.AperFunction*%
%TO.P,J4,2*%
%TO.N,Net-(J4-Pad2)*%
X132755000Y-86614000D03*
%TO.P,J4,3*%
%TO.N,Net-(J4-Pad3)*%
X130255000Y-86614000D03*
%TO.P,J4,4*%
%TO.N,GND*%
X127755000Y-86614000D03*
%TD*%
%TO.P,J1,1*%
%TO.N,Net-(J1-Pad1)*%
%TA.AperFunction,ComponentPad*%
G36*
G01*
X104230000Y-102323000D02*
X102780000Y-102323000D01*
G75*
G02*
X102530000Y-102073000I0J250000D01*
G01*
X102530000Y-100873000D01*
G75*
G02*
X102780000Y-100623000I250000J0D01*
G01*
X104230000Y-100623000D01*
G75*
G02*
X104480000Y-100873000I0J-250000D01*
G01*
X104480000Y-102073000D01*
G75*
G02*
X104230000Y-102323000I-250000J0D01*
G01*
G37*
%TD.AperFunction*%
D11*
%TO.P,J1,2*%
%TO.N,Net-(J1-Pad2)*%
X103505000Y-98973000D03*
%TO.P,J1,3*%
%TO.N,GND*%
X103505000Y-96473000D03*
%TD*%
D12*
%TO.P,H1,1*%
%TO.N,GND*%
X104775000Y-111633000D03*
D13*
X107400000Y-111633000D03*
X106631155Y-113489155D03*
X104775000Y-114258000D03*
X102918845Y-113489155D03*
X102150000Y-111633000D03*
X102918845Y-109776845D03*
X104775000Y-109008000D03*
X106631155Y-109776845D03*
%TD*%
%TO.P,H2,1*%
%TO.N,GND*%
X156669155Y-109776845D03*
X154813000Y-109008000D03*
X152956845Y-109776845D03*
X152188000Y-111633000D03*
X152956845Y-113489155D03*
X154813000Y-114258000D03*
X156669155Y-113489155D03*
X157438000Y-111633000D03*
D12*
X154813000Y-111633000D03*
%TD*%
%TO.P,H3,1*%
%TO.N,GND*%
X154813000Y-86550500D03*
D13*
X157438000Y-86550500D03*
X156669155Y-88406655D03*
X154813000Y-89175500D03*
X152956845Y-88406655D03*
X152188000Y-86550500D03*
X152956845Y-84694345D03*
X154813000Y-83925500D03*
X156669155Y-84694345D03*
%TD*%
D12*
%TO.P,H4,1*%
%TO.N,GND*%
X104775000Y-86550500D03*
D13*
X107400000Y-86550500D03*
X106631155Y-88406655D03*
X104775000Y-89175500D03*
X102918845Y-88406655D03*
X102150000Y-86550500D03*
X102918845Y-84694345D03*
X104775000Y-83925500D03*
X106631155Y-84694345D03*
%TD*%
D14*
%TO.N,GND*%
X111125000Y-85979000D03*
X117919500Y-85534500D03*
X123253500Y-85725000D03*
X145415000Y-85344000D03*
X144526000Y-91821000D03*
X141986000Y-97218500D03*
X137604500Y-102235000D03*
X137922000Y-99695000D03*
X155448000Y-95567500D03*
X150876000Y-102489000D03*
X144145000Y-107696000D03*
X130873500Y-107378500D03*
X132143500Y-109283500D03*
X127127000Y-110617000D03*
X121602500Y-112522000D03*
X116840000Y-106934000D03*
X119570500Y-102235000D03*
X124460000Y-97091500D03*
X125920500Y-91186000D03*
X127571500Y-93091000D03*
X107442000Y-105092500D03*
X108966000Y-101282500D03*
X102171500Y-105092500D03*
X106235500Y-92964000D03*
X133604000Y-104140000D03*
X115760500Y-95948500D03*
%TO.N,+5V*%
X129521000Y-101708000D03*
%TO.N,/RESET*%
X135109000Y-95713500D03*
%TO.N,Net-(J1-Pad1)*%
X113284000Y-94869000D03*
%TO.N,Net-(J4-Pad2)*%
X133223000Y-93091000D03*
%TO.N,Net-(J4-Pad3)*%
X132270500Y-94297500D03*
%TO.N,/SCL*%
X119951500Y-90487500D03*
X133858000Y-99441000D03*
%TO.N,/SDA*%
X134874000Y-100330000D03*
X121856500Y-94996000D03*
%TO.N,Net-(J1-Pad2)*%
X113284000Y-96012000D03*
%TO.N,Net-(J3-Pad5)*%
X138684000Y-109664500D03*
%TD*%
D15*
%TO.N,+5V*%
X129521000Y-101708000D02*
X129521000Y-112503000D01*
X129521000Y-112503000D02*
X131508500Y-114490500D01*
X131508500Y-114490500D02*
X141795500Y-114490500D01*
X142978500Y-113307500D02*
X142978500Y-112585500D01*
X141795500Y-114490500D02*
X142978500Y-113307500D01*
D16*
%TO.N,/RESET*%
X135109000Y-95713500D02*
X136271000Y-96875500D01*
X136271000Y-96875500D02*
X136271000Y-107950000D01*
X132978500Y-111242500D02*
X132978500Y-112585500D01*
X136271000Y-107950000D02*
X132978500Y-111242500D01*
D17*
%TO.N,Net-(J1-Pad1)*%
X110109000Y-94869000D02*
X103505000Y-101473000D01*
X113284000Y-94869000D02*
X110109000Y-94869000D01*
D16*
%TO.N,Net-(J4-Pad2)*%
X133223000Y-93091000D02*
X133223000Y-89154000D01*
X132755000Y-88686000D02*
X132755000Y-86614000D01*
X133223000Y-89154000D02*
X132755000Y-88686000D01*
%TO.N,Net-(J4-Pad3)*%
X130255000Y-86614000D02*
X130255000Y-87837000D01*
X130255000Y-87837000D02*
X132270500Y-89852500D01*
X132270500Y-89852500D02*
X132270500Y-94297500D01*
D18*
%TO.N,/SCL*%
X122174000Y-90487500D02*
X119951500Y-90487500D01*
X133858000Y-99441000D02*
X131191000Y-99441000D01*
X122237500Y-90487500D02*
X122174000Y-90487500D01*
X131191000Y-99441000D02*
X122237500Y-90487500D01*
%TO.N,/SDA*%
X125285500Y-94996000D02*
X121856500Y-94996000D01*
X130619500Y-100330000D02*
X130016250Y-99726750D01*
X134874000Y-100330000D02*
X130619500Y-100330000D01*
X130016250Y-99726750D02*
X125285500Y-94996000D01*
D17*
%TO.N,Net-(J1-Pad2)*%
X103632000Y-98996500D02*
X103568500Y-98996500D01*
X113855500Y-93726000D02*
X108752000Y-93726000D01*
X114617500Y-94488000D02*
X113855500Y-93726000D01*
X114617500Y-95377000D02*
X114617500Y-94488000D01*
X113982500Y-96012000D02*
X114617500Y-95377000D01*
X113284000Y-96012000D02*
X113982500Y-96012000D01*
X108752000Y-93726000D02*
X103505000Y-98973000D01*
D18*
%TO.N,Net-(J3-Pad5)*%
X135478500Y-112585500D02*
X135478500Y-110965000D01*
X135478500Y-110965000D02*
X136779000Y-109664500D01*
X136779000Y-109664500D02*
X138684000Y-109664500D01*
%TD*%
D19*
%TO.N,GND*%
X102496744Y-83075785D02*
X102436634Y-83115950D01*
X102040450Y-83636345D01*
X104775000Y-86370895D01*
X107509550Y-83636345D01*
X107113366Y-83115950D01*
X106703928Y-82892500D01*
X152884941Y-82892500D01*
X152534744Y-83075785D01*
X152474634Y-83115950D01*
X152078450Y-83636345D01*
X154813000Y-86370895D01*
X157547550Y-83636345D01*
X157151366Y-83115950D01*
X156741928Y-82892500D01*
X158598000Y-82892500D01*
X158598000Y-84865096D01*
X158287715Y-84272244D01*
X158247550Y-84212134D01*
X157727155Y-83815950D01*
X154992605Y-86550500D01*
X157727155Y-89285050D01*
X158247550Y-88888866D01*
X158598000Y-88246720D01*
X158598001Y-109947597D01*
X158287715Y-109354744D01*
X158247550Y-109294634D01*
X157727155Y-108898450D01*
X154992605Y-111633000D01*
X157727155Y-114367550D01*
X158247550Y-113971366D01*
X158598001Y-113329218D01*
X158598001Y-115291000D01*
X156741059Y-115291000D01*
X157091256Y-115107715D01*
X157151366Y-115067550D01*
X157547550Y-114547155D01*
X154813000Y-111812605D01*
X152078450Y-114547155D01*
X152474634Y-115067550D01*
X152884072Y-115291000D01*
X142281338Y-115291000D01*
X142317472Y-115271686D01*
X142459844Y-115154844D01*
X142489130Y-115119159D01*
X143505978Y-114102311D01*
X143549533Y-114089099D01*
X143807513Y-113951206D01*
X144028445Y-113769892D01*
X144038998Y-113804680D01*
X144097963Y-113914994D01*
X144177315Y-114011685D01*
X144274006Y-114091037D01*
X144384320Y-114150002D01*
X144504018Y-114186312D01*
X144628500Y-114198572D01*
X145192750Y-114195500D01*
X145351500Y-114036750D01*
X145351500Y-112712500D01*
X145605500Y-112712500D01*
X145605500Y-114036750D01*
X145764250Y-114195500D01*
X146328500Y-114198572D01*
X146452982Y-114186312D01*
X146572680Y-114150002D01*
X146682994Y-114091037D01*
X146779685Y-114011685D01*
X146859037Y-113914994D01*
X146918002Y-113804680D01*
X146954312Y-113684982D01*
X146966572Y-113560500D01*
X146963500Y-112871250D01*
X146804750Y-112712500D01*
X145605500Y-112712500D01*
X145351500Y-112712500D01*
X145331500Y-112712500D01*
X145331500Y-112458500D01*
X145351500Y-112458500D01*
X145351500Y-111134250D01*
X145605500Y-111134250D01*
X145605500Y-112458500D01*
X146804750Y-112458500D01*
X146963500Y-112299750D01*
X146965636Y-111820500D01*
X147200137Y-111820500D01*
X147438736Y-111773040D01*
X147663492Y-111679943D01*
X147787844Y-111596853D01*
X150658149Y-111596853D01*
X150730931Y-112408118D01*
X150960585Y-113189597D01*
X151338285Y-113911256D01*
X151378450Y-113971366D01*
X151898845Y-114367550D01*
X154633395Y-111633000D01*
X151898845Y-108898450D01*
X151378450Y-109294634D01*
X150988252Y-110009612D01*
X150745036Y-110786976D01*
X150658149Y-111596853D01*
X147787844Y-111596853D01*
X147865767Y-111544787D01*
X148037787Y-111372767D01*
X148172943Y-111170492D01*
X148266040Y-110945736D01*
X148313500Y-110707137D01*
X148313500Y-110463863D01*
X148266040Y-110225264D01*
X148172943Y-110000508D01*
X148037787Y-109798233D01*
X147865767Y-109626213D01*
X147663492Y-109491057D01*
X147438736Y-109397960D01*
X147200137Y-109350500D01*
X146956863Y-109350500D01*
X146718264Y-109397960D01*
X146493508Y-109491057D01*
X146291233Y-109626213D01*
X146119213Y-109798233D01*
X145984057Y-110000508D01*
X145890960Y-110225264D01*
X145843500Y-110463863D01*
X145843500Y-110707137D01*
X145890960Y-110945736D01*
X145902976Y-110974745D01*
X145764250Y-110975500D01*
X145605500Y-111134250D01*
X145351500Y-111134250D01*
X145192750Y-110975500D01*
X144628500Y-110972428D01*
X144504018Y-110984688D01*
X144384320Y-111020998D01*
X144274006Y-111079963D01*
X144177315Y-111159315D01*
X144097963Y-111256006D01*
X144038998Y-111366320D01*
X144028445Y-111401108D01*
X143807514Y-111219794D01*
X143549534Y-111081901D01*
X143269611Y-110996987D01*
X142978500Y-110968315D01*
X142687390Y-110996987D01*
X142407467Y-111081901D01*
X142149487Y-111219794D01*
X141923366Y-111405366D01*
X141737794Y-111631486D01*
X141728500Y-111648874D01*
X141719206Y-111631486D01*
X141533634Y-111405366D01*
X141307514Y-111219794D01*
X141049534Y-111081901D01*
X140769611Y-110996987D01*
X140478500Y-110968315D01*
X140187390Y-110996987D01*
X139907467Y-111081901D01*
X139649487Y-111219794D01*
X139423366Y-111405366D01*
X139237794Y-111631486D01*
X139228500Y-111648874D01*
X139219206Y-111631486D01*
X139033634Y-111405366D01*
X138807514Y-111219794D01*
X138549534Y-111081901D01*
X138269611Y-110996987D01*
X137978500Y-110968315D01*
X137687390Y-110996987D01*
X137407467Y-111081901D01*
X137149487Y-111219794D01*
X136923366Y-111405366D01*
X136737794Y-111631486D01*
X136728500Y-111648874D01*
X136719206Y-111631486D01*
X136533634Y-111405366D01*
X136360823Y-111263544D01*
X137124869Y-110499500D01*
X138070715Y-110499500D01*
X138193744Y-110581705D01*
X138382102Y-110659726D01*
X138582061Y-110699500D01*
X138785939Y-110699500D01*
X138985898Y-110659726D01*
X139174256Y-110581705D01*
X139343774Y-110468437D01*
X139487937Y-110324274D01*
X139601205Y-110154756D01*
X139679226Y-109966398D01*
X139719000Y-109766439D01*
X139719000Y-109562561D01*
X139679226Y-109362602D01*
X139601205Y-109174244D01*
X139487937Y-109004726D01*
X139343774Y-108860563D01*
X139174256Y-108747295D01*
X139105573Y-108718845D01*
X152078450Y-108718845D01*
X154813000Y-111453395D01*
X157547550Y-108718845D01*
X157151366Y-108198450D01*
X156436388Y-107808252D01*
X155659024Y-107565036D01*
X154849147Y-107478149D01*
X154037882Y-107550931D01*
X153256403Y-107780585D01*
X152534744Y-108158285D01*
X152474634Y-108198450D01*
X152078450Y-108718845D01*
X139105573Y-108718845D01*
X138985898Y-108669274D01*
X138785939Y-108629500D01*
X138582061Y-108629500D01*
X138382102Y-108669274D01*
X138193744Y-108747295D01*
X138070715Y-108829500D01*
X136820018Y-108829500D01*
X136779000Y-108825460D01*
X136737982Y-108829500D01*
X136737981Y-108829500D01*
X136615311Y-108841582D01*
X136485576Y-108880936D01*
X136815618Y-108550895D01*
X136846528Y-108525528D01*
X136902119Y-108457790D01*
X136947749Y-108402190D01*
X136987951Y-108326976D01*
X137022963Y-108261473D01*
X137069280Y-108108788D01*
X137081000Y-107989791D01*
X137081000Y-107989789D01*
X137084919Y-107950001D01*
X137081000Y-107910213D01*
X137081000Y-96915287D01*
X137084919Y-96875499D01*
X137080427Y-96829890D01*
X137069280Y-96716712D01*
X137022963Y-96564027D01*
X136947750Y-96423312D01*
X136947749Y-96423310D01*
X136884302Y-96346000D01*
X136846528Y-96299972D01*
X136815619Y-96274606D01*
X136141871Y-95600859D01*
X136104226Y-95411602D01*
X136026205Y-95223244D01*
X135912937Y-95053726D01*
X135768774Y-94909563D01*
X135599256Y-94796295D01*
X135410898Y-94718274D01*
X135210939Y-94678500D01*
X135007061Y-94678500D01*
X134807102Y-94718274D01*
X134618744Y-94796295D01*
X134449226Y-94909563D01*
X134305063Y-95053726D01*
X134191795Y-95223244D01*
X134113774Y-95411602D01*
X134074000Y-95611561D01*
X134074000Y-95815439D01*
X134113774Y-96015398D01*
X134191795Y-96203756D01*
X134305063Y-96373274D01*
X134449226Y-96517437D01*
X134618744Y-96630705D01*
X134807102Y-96708726D01*
X134996359Y-96746371D01*
X135461000Y-97211013D01*
X135461000Y-99477437D01*
X135364256Y-99412795D01*
X135175898Y-99334774D01*
X134975939Y-99295000D01*
X134884236Y-99295000D01*
X134853226Y-99139102D01*
X134775205Y-98950744D01*
X134661937Y-98781226D01*
X134517774Y-98637063D01*
X134348256Y-98523795D01*
X134159898Y-98445774D01*
X133959939Y-98406000D01*
X133756061Y-98406000D01*
X133556102Y-98445774D01*
X133367744Y-98523795D01*
X133244715Y-98606000D01*
X131536868Y-98606000D01*
X122856946Y-89926079D01*
X122830791Y-89894209D01*
X122703646Y-89789864D01*
X122558587Y-89712328D01*
X122401189Y-89664582D01*
X122278519Y-89652500D01*
X122278518Y-89652500D01*
X122237500Y-89648460D01*
X122196482Y-89652500D01*
X120564785Y-89652500D01*
X120441756Y-89570295D01*
X120253398Y-89492274D01*
X120053439Y-89452500D01*
X119849561Y-89452500D01*
X119649602Y-89492274D01*
X119461244Y-89570295D01*
X119291726Y-89683563D01*
X119147563Y-89827726D01*
X119034295Y-89997244D01*
X118956274Y-90185602D01*
X118916500Y-90385561D01*
X118916500Y-90589439D01*
X118956274Y-90789398D01*
X119034295Y-90977756D01*
X119147563Y-91147274D01*
X119291726Y-91291437D01*
X119461244Y-91404705D01*
X119649602Y-91482726D01*
X119849561Y-91522500D01*
X120053439Y-91522500D01*
X120253398Y-91482726D01*
X120441756Y-91404705D01*
X120564785Y-91322500D01*
X121891633Y-91322500D01*
X124730133Y-94161000D01*
X122469785Y-94161000D01*
X122346756Y-94078795D01*
X122158398Y-94000774D01*
X121958439Y-93961000D01*
X121754561Y-93961000D01*
X121554602Y-94000774D01*
X121366244Y-94078795D01*
X121196726Y-94192063D01*
X121052563Y-94336226D01*
X120939295Y-94505744D01*
X120861274Y-94694102D01*
X120821500Y-94894061D01*
X120821500Y-95097939D01*
X120861274Y-95297898D01*
X120939295Y-95486256D01*
X121052563Y-95655774D01*
X121196726Y-95799937D01*
X121366244Y-95913205D01*
X121554602Y-95991226D01*
X121754561Y-96031000D01*
X121958439Y-96031000D01*
X122158398Y-95991226D01*
X122346756Y-95913205D01*
X122469785Y-95831000D01*
X124939633Y-95831000D01*
X129454820Y-100346189D01*
X129454831Y-100346198D01*
X129821036Y-100712404D01*
X129622939Y-100673000D01*
X129419061Y-100673000D01*
X129219102Y-100712774D01*
X129030744Y-100790795D01*
X128861226Y-100904063D01*
X128717063Y-101048226D01*
X128603795Y-101217744D01*
X128525774Y-101406102D01*
X128486000Y-101606061D01*
X128486000Y-101809939D01*
X128525774Y-102009898D01*
X128586000Y-102155295D01*
X128586001Y-112457058D01*
X128581476Y-112503000D01*
X128599529Y-112686291D01*
X128628779Y-112782714D01*
X128652994Y-112862540D01*
X128739815Y-113024972D01*
X128856657Y-113167344D01*
X128892336Y-113196625D01*
X130814874Y-115119164D01*
X130844156Y-115154844D01*
X130986528Y-115271686D01*
X131022662Y-115291000D01*
X106703059Y-115291000D01*
X107053256Y-115107715D01*
X107113366Y-115067550D01*
X107509550Y-114547155D01*
X104775000Y-111812605D01*
X102040450Y-114547155D01*
X102436634Y-115067550D01*
X102846072Y-115291000D01*
X100672500Y-115291000D01*
X100672500Y-112180384D01*
X100692931Y-112408118D01*
X100922585Y-113189597D01*
X101300285Y-113911256D01*
X101340450Y-113971366D01*
X101860845Y-114367550D01*
X104595395Y-111633000D01*
X104954605Y-111633000D01*
X107689155Y-114367550D01*
X108209550Y-113971366D01*
X108599748Y-113256388D01*
X108842964Y-112479024D01*
X108929851Y-111669147D01*
X108857069Y-110857882D01*
X108627415Y-110076403D01*
X108249715Y-109354744D01*
X108209550Y-109294634D01*
X107689155Y-108898450D01*
X104954605Y-111633000D01*
X104595395Y-111633000D01*
X101860845Y-108898450D01*
X101340450Y-109294634D01*
X100950252Y-110009612D01*
X100707036Y-110786976D01*
X100672500Y-111108887D01*
X100672500Y-108718845D01*
X102040450Y-108718845D01*
X104775000Y-111453395D01*
X107509550Y-108718845D01*
X107113366Y-108198450D01*
X106398388Y-107808252D01*
X105621024Y-107565036D01*
X104811147Y-107478149D01*
X103999882Y-107550931D01*
X103218403Y-107780585D01*
X102496744Y-108158285D01*
X102436634Y-108198450D01*
X102040450Y-108718845D01*
X100672500Y-108718845D01*
X100672500Y-98973000D01*
X101887815Y-98973000D01*
X101916487Y-99264111D01*
X102001401Y-99544034D01*
X102139294Y-99802014D01*
X102324866Y-100028134D01*
X102388337Y-100080223D01*
X102286614Y-100134595D01*
X102152038Y-100245038D01*
X102041595Y-100379614D01*
X101959528Y-100533150D01*
X101908992Y-100699746D01*
X101891928Y-100873000D01*
X101891928Y-102073000D01*
X101908992Y-102246254D01*
X101959528Y-102412850D01*
X102041595Y-102566386D01*
X102152038Y-102700962D01*
X102286614Y-102811405D01*
X102440150Y-102893472D01*
X102606746Y-102944008D01*
X102780000Y-102961072D01*
X104230000Y-102961072D01*
X104270000Y-102957132D01*
X104270000Y-103194637D01*
X104317460Y-103433236D01*
X104410557Y-103657992D01*
X104545713Y-103860267D01*
X104717733Y-104032287D01*
X104920008Y-104167443D01*
X105144764Y-104260540D01*
X105383363Y-104308000D01*
X105626637Y-104308000D01*
X105865236Y-104260540D01*
X106089992Y-104167443D01*
X106292267Y-104032287D01*
X106464287Y-103860267D01*
X106599443Y-103657992D01*
X106692540Y-103433236D01*
X106740000Y-103194637D01*
X106740000Y-102951363D01*
X106692540Y-102712764D01*
X106599443Y-102488008D01*
X106464287Y-102285733D01*
X106292267Y-102113713D01*
X106089992Y-101978557D01*
X105865236Y-101885460D01*
X105626637Y-101838000D01*
X105383363Y-101838000D01*
X105144764Y-101885460D01*
X105118072Y-101896516D01*
X105118072Y-100934729D01*
X110423802Y-95629000D01*
X112322368Y-95629000D01*
X112288774Y-95710102D01*
X112249000Y-95910061D01*
X112249000Y-96113939D01*
X112288774Y-96313898D01*
X112366795Y-96502256D01*
X112480063Y-96671774D01*
X112624226Y-96815937D01*
X112793744Y-96929205D01*
X112982102Y-97007226D01*
X113182061Y-97047000D01*
X113385939Y-97047000D01*
X113585898Y-97007226D01*
X113774256Y-96929205D01*
X113943774Y-96815937D01*
X113984203Y-96775508D01*
X114019822Y-96772000D01*
X114019833Y-96772000D01*
X114131486Y-96761003D01*
X114274747Y-96717546D01*
X114406776Y-96646974D01*
X114522501Y-96552001D01*
X114546303Y-96522998D01*
X115128504Y-95940798D01*
X115157501Y-95917001D01*
X115252474Y-95801276D01*
X115323046Y-95669247D01*
X115366503Y-95525986D01*
X115377500Y-95414333D01*
X115377500Y-95414332D01*
X115381177Y-95377000D01*
X115377500Y-95339667D01*
X115377500Y-94525325D01*
X115381176Y-94488000D01*
X115377500Y-94450675D01*
X115377500Y-94450667D01*
X115366503Y-94339014D01*
X115323046Y-94195753D01*
X115252474Y-94063724D01*
X115157501Y-93947999D01*
X115128502Y-93924201D01*
X114419303Y-93215002D01*
X114395501Y-93185999D01*
X114279776Y-93091026D01*
X114147747Y-93020454D01*
X114004486Y-92976997D01*
X113892833Y-92966000D01*
X113892822Y-92966000D01*
X113855500Y-92962324D01*
X113818178Y-92966000D01*
X108789333Y-92966000D01*
X108752000Y-92962323D01*
X108714667Y-92966000D01*
X108603014Y-92976997D01*
X108459753Y-93020454D01*
X108327724Y-93091026D01*
X108211999Y-93185999D01*
X108188201Y-93214997D01*
X105057201Y-96345998D01*
X104950156Y-96345998D01*
X105071476Y-96116110D01*
X104979352Y-95853142D01*
X104832496Y-95601807D01*
X104639429Y-95383951D01*
X104407570Y-95207947D01*
X104145830Y-95080558D01*
X103864267Y-95006680D01*
X103632000Y-95146835D01*
X103632000Y-96346000D01*
X103652000Y-96346000D01*
X103652000Y-96600000D01*
X103632000Y-96600000D01*
X103632000Y-96620000D01*
X103378000Y-96620000D01*
X103378000Y-96600000D01*
X102059845Y-96600000D01*
X101938524Y-96829890D01*
X102030648Y-97092858D01*
X102177504Y-97344193D01*
X102370571Y-97562049D01*
X102576722Y-97718538D01*
X102550986Y-97732294D01*
X102324866Y-97917866D01*
X102139294Y-98143986D01*
X102001401Y-98401966D01*
X101916487Y-98681889D01*
X101887815Y-98973000D01*
X100672500Y-98973000D01*
X100672500Y-96116110D01*
X101938524Y-96116110D01*
X102059845Y-96346000D01*
X103378000Y-96346000D01*
X103378000Y-95146835D01*
X103145733Y-95006680D01*
X102864170Y-95080558D01*
X102602430Y-95207947D01*
X102370571Y-95383951D01*
X102177504Y-95601807D01*
X102030648Y-95853142D01*
X101938524Y-96116110D01*
X100672500Y-96116110D01*
X100672500Y-89464655D01*
X102040450Y-89464655D01*
X102436634Y-89985050D01*
X103151612Y-90375248D01*
X103928976Y-90618464D01*
X104738853Y-90705351D01*
X105550118Y-90632569D01*
X106331597Y-90402915D01*
X107053256Y-90025215D01*
X107113366Y-89985050D01*
X107509550Y-89464655D01*
X104775000Y-86730105D01*
X102040450Y-89464655D01*
X100672500Y-89464655D01*
X100672500Y-87097884D01*
X100692931Y-87325618D01*
X100922585Y-88107097D01*
X101300285Y-88828756D01*
X101340450Y-88888866D01*
X101860845Y-89285050D01*
X104595395Y-86550500D01*
X104954605Y-86550500D01*
X107689155Y-89285050D01*
X108209550Y-88888866D01*
X108599748Y-88173888D01*
X108842964Y-87396524D01*
X108888372Y-86973267D01*
X126288680Y-86973267D01*
X126362558Y-87254830D01*
X126489947Y-87516570D01*
X126665951Y-87748429D01*
X126883807Y-87941496D01*
X127135142Y-88088352D01*
X127398110Y-88180476D01*
X127628000Y-88059155D01*
X127628000Y-86741000D01*
X126428835Y-86741000D01*
X126288680Y-86973267D01*
X108888372Y-86973267D01*
X108929851Y-86586647D01*
X108900074Y-86254733D01*
X126288680Y-86254733D01*
X126428835Y-86487000D01*
X127628000Y-86487000D01*
X127628000Y-85168845D01*
X127882000Y-85168845D01*
X127882000Y-86487000D01*
X127902000Y-86487000D01*
X127902000Y-86741000D01*
X127882000Y-86741000D01*
X127882000Y-88059155D01*
X128111890Y-88180476D01*
X128374858Y-88088352D01*
X128626193Y-87941496D01*
X128844049Y-87748429D01*
X129000538Y-87542278D01*
X129014294Y-87568013D01*
X129199866Y-87794134D01*
X129425986Y-87979706D01*
X129456846Y-87996201D01*
X129481480Y-88077405D01*
X129503038Y-88148473D01*
X129578251Y-88289189D01*
X129632852Y-88355720D01*
X129679473Y-88412528D01*
X129710383Y-88437895D01*
X131460500Y-90188013D01*
X131460501Y-93646799D01*
X131353295Y-93807244D01*
X131275274Y-93995602D01*
X131235500Y-94195561D01*
X131235500Y-94399439D01*
X131275274Y-94599398D01*
X131353295Y-94787756D01*
X131466563Y-94957274D01*
X131610726Y-95101437D01*
X131780244Y-95214705D01*
X131968602Y-95292726D01*
X132168561Y-95332500D01*
X132372439Y-95332500D01*
X132572398Y-95292726D01*
X132760756Y-95214705D01*
X132930274Y-95101437D01*
X133074437Y-94957274D01*
X133187705Y-94787756D01*
X133265726Y-94599398D01*
X133305500Y-94399439D01*
X133305500Y-94195561D01*
X133291664Y-94126000D01*
X133324939Y-94126000D01*
X133524898Y-94086226D01*
X133713256Y-94008205D01*
X133882774Y-93894937D01*
X134026937Y-93750774D01*
X134140205Y-93581256D01*
X134218226Y-93392898D01*
X134258000Y-93192939D01*
X134258000Y-92989061D01*
X134218226Y-92789102D01*
X134140205Y-92600744D01*
X134033000Y-92440300D01*
X134033000Y-89464655D01*
X152078450Y-89464655D01*
X152474634Y-89985050D01*
X153189612Y-90375248D01*
X153966976Y-90618464D01*
X154776853Y-90705351D01*
X155588118Y-90632569D01*
X156369597Y-90402915D01*
X157091256Y-90025215D01*
X157151366Y-89985050D01*
X157547550Y-89464655D01*
X154813000Y-86730105D01*
X152078450Y-89464655D01*
X134033000Y-89464655D01*
X134033000Y-89193788D01*
X134036919Y-89154000D01*
X134027466Y-89058023D01*
X134021280Y-88995212D01*
X133974963Y-88842527D01*
X133912566Y-88725790D01*
X133899749Y-88701810D01*
X133857983Y-88650919D01*
X133798528Y-88578472D01*
X133767612Y-88553100D01*
X133565000Y-88350488D01*
X133565000Y-87989869D01*
X133584013Y-87979706D01*
X133810134Y-87794134D01*
X133862223Y-87730663D01*
X133916595Y-87832386D01*
X134027038Y-87966962D01*
X134161614Y-88077405D01*
X134315150Y-88159472D01*
X134481746Y-88210008D01*
X134655000Y-88227072D01*
X135855000Y-88227072D01*
X136028254Y-88210008D01*
X136194850Y-88159472D01*
X136348386Y-88077405D01*
X136482962Y-87966962D01*
X136593405Y-87832386D01*
X136675472Y-87678850D01*
X136726008Y-87512254D01*
X136743072Y-87339000D01*
X136743072Y-86514353D01*
X150658149Y-86514353D01*
X150730931Y-87325618D01*
X150960585Y-88107097D01*
X151338285Y-88828756D01*
X151378450Y-88888866D01*
X151898845Y-89285050D01*
X154633395Y-86550500D01*
X151898845Y-83815950D01*
X151378450Y-84212134D01*
X150988252Y-84927112D01*
X150745036Y-85704476D01*
X150658149Y-86514353D01*
X136743072Y-86514353D01*
X136743072Y-85889000D01*
X136739132Y-85849000D01*
X136976637Y-85849000D01*
X137215236Y-85801540D01*
X137439992Y-85708443D01*
X137642267Y-85573287D01*
X137814287Y-85401267D01*
X137949443Y-85198992D01*
X138042540Y-84974236D01*
X138090000Y-84735637D01*
X138090000Y-84492363D01*
X138042540Y-84253764D01*
X137949443Y-84029008D01*
X137814287Y-83826733D01*
X137642267Y-83654713D01*
X137439992Y-83519557D01*
X137215236Y-83426460D01*
X136976637Y-83379000D01*
X136733363Y-83379000D01*
X136494764Y-83426460D01*
X136270008Y-83519557D01*
X136067733Y-83654713D01*
X135895713Y-83826733D01*
X135760557Y-84029008D01*
X135667460Y-84253764D01*
X135620000Y-84492363D01*
X135620000Y-84735637D01*
X135667460Y-84974236D01*
X135678516Y-85000928D01*
X134655000Y-85000928D01*
X134481746Y-85017992D01*
X134315150Y-85068528D01*
X134161614Y-85150595D01*
X134027038Y-85261038D01*
X133916595Y-85395614D01*
X133862223Y-85497337D01*
X133810134Y-85433866D01*
X133584014Y-85248294D01*
X133326034Y-85110401D01*
X133046111Y-85025487D01*
X132755000Y-84996815D01*
X132463890Y-85025487D01*
X132183967Y-85110401D01*
X131925987Y-85248294D01*
X131699866Y-85433866D01*
X131514294Y-85659986D01*
X131505000Y-85677374D01*
X131495706Y-85659986D01*
X131310134Y-85433866D01*
X131084014Y-85248294D01*
X130826034Y-85110401D01*
X130546111Y-85025487D01*
X130255000Y-84996815D01*
X129963890Y-85025487D01*
X129683967Y-85110401D01*
X129425987Y-85248294D01*
X129199866Y-85433866D01*
X129014294Y-85659986D01*
X129000538Y-85685722D01*
X128844049Y-85479571D01*
X128626193Y-85286504D01*
X128374858Y-85139648D01*
X128111890Y-85047524D01*
X127882000Y-85168845D01*
X127628000Y-85168845D01*
X127398110Y-85047524D01*
X127135142Y-85139648D01*
X126883807Y-85286504D01*
X126665951Y-85479571D01*
X126489947Y-85711430D01*
X126362558Y-85973170D01*
X126288680Y-86254733D01*
X108900074Y-86254733D01*
X108857069Y-85775382D01*
X108627415Y-84993903D01*
X108249715Y-84272244D01*
X108209550Y-84212134D01*
X107689155Y-83815950D01*
X104954605Y-86550500D01*
X104595395Y-86550500D01*
X101860845Y-83815950D01*
X101340450Y-84212134D01*
X100950252Y-84927112D01*
X100707036Y-85704476D01*
X100672500Y-86026387D01*
X100672500Y-82892500D01*
X102846941Y-82892500D01*
X102496744Y-83075785D01*
%TA.AperFunction,Conductor*%
D20*
G36*
X102496744Y-83075785D02*
G01*
X102436634Y-83115950D01*
X102040450Y-83636345D01*
X104775000Y-86370895D01*
X107509550Y-83636345D01*
X107113366Y-83115950D01*
X106703928Y-82892500D01*
X152884941Y-82892500D01*
X152534744Y-83075785D01*
X152474634Y-83115950D01*
X152078450Y-83636345D01*
X154813000Y-86370895D01*
X157547550Y-83636345D01*
X157151366Y-83115950D01*
X156741928Y-82892500D01*
X158598000Y-82892500D01*
X158598000Y-84865096D01*
X158287715Y-84272244D01*
X158247550Y-84212134D01*
X157727155Y-83815950D01*
X154992605Y-86550500D01*
X157727155Y-89285050D01*
X158247550Y-88888866D01*
X158598000Y-88246720D01*
X158598001Y-109947597D01*
X158287715Y-109354744D01*
X158247550Y-109294634D01*
X157727155Y-108898450D01*
X154992605Y-111633000D01*
X157727155Y-114367550D01*
X158247550Y-113971366D01*
X158598001Y-113329218D01*
X158598001Y-115291000D01*
X156741059Y-115291000D01*
X157091256Y-115107715D01*
X157151366Y-115067550D01*
X157547550Y-114547155D01*
X154813000Y-111812605D01*
X152078450Y-114547155D01*
X152474634Y-115067550D01*
X152884072Y-115291000D01*
X142281338Y-115291000D01*
X142317472Y-115271686D01*
X142459844Y-115154844D01*
X142489130Y-115119159D01*
X143505978Y-114102311D01*
X143549533Y-114089099D01*
X143807513Y-113951206D01*
X144028445Y-113769892D01*
X144038998Y-113804680D01*
X144097963Y-113914994D01*
X144177315Y-114011685D01*
X144274006Y-114091037D01*
X144384320Y-114150002D01*
X144504018Y-114186312D01*
X144628500Y-114198572D01*
X145192750Y-114195500D01*
X145351500Y-114036750D01*
X145351500Y-112712500D01*
X145605500Y-112712500D01*
X145605500Y-114036750D01*
X145764250Y-114195500D01*
X146328500Y-114198572D01*
X146452982Y-114186312D01*
X146572680Y-114150002D01*
X146682994Y-114091037D01*
X146779685Y-114011685D01*
X146859037Y-113914994D01*
X146918002Y-113804680D01*
X146954312Y-113684982D01*
X146966572Y-113560500D01*
X146963500Y-112871250D01*
X146804750Y-112712500D01*
X145605500Y-112712500D01*
X145351500Y-112712500D01*
X145331500Y-112712500D01*
X145331500Y-112458500D01*
X145351500Y-112458500D01*
X145351500Y-111134250D01*
X145605500Y-111134250D01*
X145605500Y-112458500D01*
X146804750Y-112458500D01*
X146963500Y-112299750D01*
X146965636Y-111820500D01*
X147200137Y-111820500D01*
X147438736Y-111773040D01*
X147663492Y-111679943D01*
X147787844Y-111596853D01*
X150658149Y-111596853D01*
X150730931Y-112408118D01*
X150960585Y-113189597D01*
X151338285Y-113911256D01*
X151378450Y-113971366D01*
X151898845Y-114367550D01*
X154633395Y-111633000D01*
X151898845Y-108898450D01*
X151378450Y-109294634D01*
X150988252Y-110009612D01*
X150745036Y-110786976D01*
X150658149Y-111596853D01*
X147787844Y-111596853D01*
X147865767Y-111544787D01*
X148037787Y-111372767D01*
X148172943Y-111170492D01*
X148266040Y-110945736D01*
X148313500Y-110707137D01*
X148313500Y-110463863D01*
X148266040Y-110225264D01*
X148172943Y-110000508D01*
X148037787Y-109798233D01*
X147865767Y-109626213D01*
X147663492Y-109491057D01*
X147438736Y-109397960D01*
X147200137Y-109350500D01*
X146956863Y-109350500D01*
X146718264Y-109397960D01*
X146493508Y-109491057D01*
X146291233Y-109626213D01*
X146119213Y-109798233D01*
X145984057Y-110000508D01*
X145890960Y-110225264D01*
X145843500Y-110463863D01*
X145843500Y-110707137D01*
X145890960Y-110945736D01*
X145902976Y-110974745D01*
X145764250Y-110975500D01*
X145605500Y-111134250D01*
X145351500Y-111134250D01*
X145192750Y-110975500D01*
X144628500Y-110972428D01*
X144504018Y-110984688D01*
X144384320Y-111020998D01*
X144274006Y-111079963D01*
X144177315Y-111159315D01*
X144097963Y-111256006D01*
X144038998Y-111366320D01*
X144028445Y-111401108D01*
X143807514Y-111219794D01*
X143549534Y-111081901D01*
X143269611Y-110996987D01*
X142978500Y-110968315D01*
X142687390Y-110996987D01*
X142407467Y-111081901D01*
X142149487Y-111219794D01*
X141923366Y-111405366D01*
X141737794Y-111631486D01*
X141728500Y-111648874D01*
X141719206Y-111631486D01*
X141533634Y-111405366D01*
X141307514Y-111219794D01*
X141049534Y-111081901D01*
X140769611Y-110996987D01*
X140478500Y-110968315D01*
X140187390Y-110996987D01*
X139907467Y-111081901D01*
X139649487Y-111219794D01*
X139423366Y-111405366D01*
X139237794Y-111631486D01*
X139228500Y-111648874D01*
X139219206Y-111631486D01*
X139033634Y-111405366D01*
X138807514Y-111219794D01*
X138549534Y-111081901D01*
X138269611Y-110996987D01*
X137978500Y-110968315D01*
X137687390Y-110996987D01*
X137407467Y-111081901D01*
X137149487Y-111219794D01*
X136923366Y-111405366D01*
X136737794Y-111631486D01*
X136728500Y-111648874D01*
X136719206Y-111631486D01*
X136533634Y-111405366D01*
X136360823Y-111263544D01*
X137124869Y-110499500D01*
X138070715Y-110499500D01*
X138193744Y-110581705D01*
X138382102Y-110659726D01*
X138582061Y-110699500D01*
X138785939Y-110699500D01*
X138985898Y-110659726D01*
X139174256Y-110581705D01*
X139343774Y-110468437D01*
X139487937Y-110324274D01*
X139601205Y-110154756D01*
X139679226Y-109966398D01*
X139719000Y-109766439D01*
X139719000Y-109562561D01*
X139679226Y-109362602D01*
X139601205Y-109174244D01*
X139487937Y-109004726D01*
X139343774Y-108860563D01*
X139174256Y-108747295D01*
X139105573Y-108718845D01*
X152078450Y-108718845D01*
X154813000Y-111453395D01*
X157547550Y-108718845D01*
X157151366Y-108198450D01*
X156436388Y-107808252D01*
X155659024Y-107565036D01*
X154849147Y-107478149D01*
X154037882Y-107550931D01*
X153256403Y-107780585D01*
X152534744Y-108158285D01*
X152474634Y-108198450D01*
X152078450Y-108718845D01*
X139105573Y-108718845D01*
X138985898Y-108669274D01*
X138785939Y-108629500D01*
X138582061Y-108629500D01*
X138382102Y-108669274D01*
X138193744Y-108747295D01*
X138070715Y-108829500D01*
X136820018Y-108829500D01*
X136779000Y-108825460D01*
X136737982Y-108829500D01*
X136737981Y-108829500D01*
X136615311Y-108841582D01*
X136485576Y-108880936D01*
X136815618Y-108550895D01*
X136846528Y-108525528D01*
X136902119Y-108457790D01*
X136947749Y-108402190D01*
X136987951Y-108326976D01*
X137022963Y-108261473D01*
X137069280Y-108108788D01*
X137081000Y-107989791D01*
X137081000Y-107989789D01*
X137084919Y-107950001D01*
X137081000Y-107910213D01*
X137081000Y-96915287D01*
X137084919Y-96875499D01*
X137080427Y-96829890D01*
X137069280Y-96716712D01*
X137022963Y-96564027D01*
X136947750Y-96423312D01*
X136947749Y-96423310D01*
X136884302Y-96346000D01*
X136846528Y-96299972D01*
X136815619Y-96274606D01*
X136141871Y-95600859D01*
X136104226Y-95411602D01*
X136026205Y-95223244D01*
X135912937Y-95053726D01*
X135768774Y-94909563D01*
X135599256Y-94796295D01*
X135410898Y-94718274D01*
X135210939Y-94678500D01*
X135007061Y-94678500D01*
X134807102Y-94718274D01*
X134618744Y-94796295D01*
X134449226Y-94909563D01*
X134305063Y-95053726D01*
X134191795Y-95223244D01*
X134113774Y-95411602D01*
X134074000Y-95611561D01*
X134074000Y-95815439D01*
X134113774Y-96015398D01*
X134191795Y-96203756D01*
X134305063Y-96373274D01*
X134449226Y-96517437D01*
X134618744Y-96630705D01*
X134807102Y-96708726D01*
X134996359Y-96746371D01*
X135461000Y-97211013D01*
X135461000Y-99477437D01*
X135364256Y-99412795D01*
X135175898Y-99334774D01*
X134975939Y-99295000D01*
X134884236Y-99295000D01*
X134853226Y-99139102D01*
X134775205Y-98950744D01*
X134661937Y-98781226D01*
X134517774Y-98637063D01*
X134348256Y-98523795D01*
X134159898Y-98445774D01*
X133959939Y-98406000D01*
X133756061Y-98406000D01*
X133556102Y-98445774D01*
X133367744Y-98523795D01*
X133244715Y-98606000D01*
X131536868Y-98606000D01*
X122856946Y-89926079D01*
X122830791Y-89894209D01*
X122703646Y-89789864D01*
X122558587Y-89712328D01*
X122401189Y-89664582D01*
X122278519Y-89652500D01*
X122278518Y-89652500D01*
X122237500Y-89648460D01*
X122196482Y-89652500D01*
X120564785Y-89652500D01*
X120441756Y-89570295D01*
X120253398Y-89492274D01*
X120053439Y-89452500D01*
X119849561Y-89452500D01*
X119649602Y-89492274D01*
X119461244Y-89570295D01*
X119291726Y-89683563D01*
X119147563Y-89827726D01*
X119034295Y-89997244D01*
X118956274Y-90185602D01*
X118916500Y-90385561D01*
X118916500Y-90589439D01*
X118956274Y-90789398D01*
X119034295Y-90977756D01*
X119147563Y-91147274D01*
X119291726Y-91291437D01*
X119461244Y-91404705D01*
X119649602Y-91482726D01*
X119849561Y-91522500D01*
X120053439Y-91522500D01*
X120253398Y-91482726D01*
X120441756Y-91404705D01*
X120564785Y-91322500D01*
X121891633Y-91322500D01*
X124730133Y-94161000D01*
X122469785Y-94161000D01*
X122346756Y-94078795D01*
X122158398Y-94000774D01*
X121958439Y-93961000D01*
X121754561Y-93961000D01*
X121554602Y-94000774D01*
X121366244Y-94078795D01*
X121196726Y-94192063D01*
X121052563Y-94336226D01*
X120939295Y-94505744D01*
X120861274Y-94694102D01*
X120821500Y-94894061D01*
X120821500Y-95097939D01*
X120861274Y-95297898D01*
X120939295Y-95486256D01*
X121052563Y-95655774D01*
X121196726Y-95799937D01*
X121366244Y-95913205D01*
X121554602Y-95991226D01*
X121754561Y-96031000D01*
X121958439Y-96031000D01*
X122158398Y-95991226D01*
X122346756Y-95913205D01*
X122469785Y-95831000D01*
X124939633Y-95831000D01*
X129454820Y-100346189D01*
X129454831Y-100346198D01*
X129821036Y-100712404D01*
X129622939Y-100673000D01*
X129419061Y-100673000D01*
X129219102Y-100712774D01*
X129030744Y-100790795D01*
X128861226Y-100904063D01*
X128717063Y-101048226D01*
X128603795Y-101217744D01*
X128525774Y-101406102D01*
X128486000Y-101606061D01*
X128486000Y-101809939D01*
X128525774Y-102009898D01*
X128586000Y-102155295D01*
X128586001Y-112457058D01*
X128581476Y-112503000D01*
X128599529Y-112686291D01*
X128628779Y-112782714D01*
X128652994Y-112862540D01*
X128739815Y-113024972D01*
X128856657Y-113167344D01*
X128892336Y-113196625D01*
X130814874Y-115119164D01*
X130844156Y-115154844D01*
X130986528Y-115271686D01*
X131022662Y-115291000D01*
X106703059Y-115291000D01*
X107053256Y-115107715D01*
X107113366Y-115067550D01*
X107509550Y-114547155D01*
X104775000Y-111812605D01*
X102040450Y-114547155D01*
X102436634Y-115067550D01*
X102846072Y-115291000D01*
X100672500Y-115291000D01*
X100672500Y-112180384D01*
X100692931Y-112408118D01*
X100922585Y-113189597D01*
X101300285Y-113911256D01*
X101340450Y-113971366D01*
X101860845Y-114367550D01*
X104595395Y-111633000D01*
X104954605Y-111633000D01*
X107689155Y-114367550D01*
X108209550Y-113971366D01*
X108599748Y-113256388D01*
X108842964Y-112479024D01*
X108929851Y-111669147D01*
X108857069Y-110857882D01*
X108627415Y-110076403D01*
X108249715Y-109354744D01*
X108209550Y-109294634D01*
X107689155Y-108898450D01*
X104954605Y-111633000D01*
X104595395Y-111633000D01*
X101860845Y-108898450D01*
X101340450Y-109294634D01*
X100950252Y-110009612D01*
X100707036Y-110786976D01*
X100672500Y-111108887D01*
X100672500Y-108718845D01*
X102040450Y-108718845D01*
X104775000Y-111453395D01*
X107509550Y-108718845D01*
X107113366Y-108198450D01*
X106398388Y-107808252D01*
X105621024Y-107565036D01*
X104811147Y-107478149D01*
X103999882Y-107550931D01*
X103218403Y-107780585D01*
X102496744Y-108158285D01*
X102436634Y-108198450D01*
X102040450Y-108718845D01*
X100672500Y-108718845D01*
X100672500Y-98973000D01*
X101887815Y-98973000D01*
X101916487Y-99264111D01*
X102001401Y-99544034D01*
X102139294Y-99802014D01*
X102324866Y-100028134D01*
X102388337Y-100080223D01*
X102286614Y-100134595D01*
X102152038Y-100245038D01*
X102041595Y-100379614D01*
X101959528Y-100533150D01*
X101908992Y-100699746D01*
X101891928Y-100873000D01*
X101891928Y-102073000D01*
X101908992Y-102246254D01*
X101959528Y-102412850D01*
X102041595Y-102566386D01*
X102152038Y-102700962D01*
X102286614Y-102811405D01*
X102440150Y-102893472D01*
X102606746Y-102944008D01*
X102780000Y-102961072D01*
X104230000Y-102961072D01*
X104270000Y-102957132D01*
X104270000Y-103194637D01*
X104317460Y-103433236D01*
X104410557Y-103657992D01*
X104545713Y-103860267D01*
X104717733Y-104032287D01*
X104920008Y-104167443D01*
X105144764Y-104260540D01*
X105383363Y-104308000D01*
X105626637Y-104308000D01*
X105865236Y-104260540D01*
X106089992Y-104167443D01*
X106292267Y-104032287D01*
X106464287Y-103860267D01*
X106599443Y-103657992D01*
X106692540Y-103433236D01*
X106740000Y-103194637D01*
X106740000Y-102951363D01*
X106692540Y-102712764D01*
X106599443Y-102488008D01*
X106464287Y-102285733D01*
X106292267Y-102113713D01*
X106089992Y-101978557D01*
X105865236Y-101885460D01*
X105626637Y-101838000D01*
X105383363Y-101838000D01*
X105144764Y-101885460D01*
X105118072Y-101896516D01*
X105118072Y-100934729D01*
X110423802Y-95629000D01*
X112322368Y-95629000D01*
X112288774Y-95710102D01*
X112249000Y-95910061D01*
X112249000Y-96113939D01*
X112288774Y-96313898D01*
X112366795Y-96502256D01*
X112480063Y-96671774D01*
X112624226Y-96815937D01*
X112793744Y-96929205D01*
X112982102Y-97007226D01*
X113182061Y-97047000D01*
X113385939Y-97047000D01*
X113585898Y-97007226D01*
X113774256Y-96929205D01*
X113943774Y-96815937D01*
X113984203Y-96775508D01*
X114019822Y-96772000D01*
X114019833Y-96772000D01*
X114131486Y-96761003D01*
X114274747Y-96717546D01*
X114406776Y-96646974D01*
X114522501Y-96552001D01*
X114546303Y-96522998D01*
X115128504Y-95940798D01*
X115157501Y-95917001D01*
X115252474Y-95801276D01*
X115323046Y-95669247D01*
X115366503Y-95525986D01*
X115377500Y-95414333D01*
X115377500Y-95414332D01*
X115381177Y-95377000D01*
X115377500Y-95339667D01*
X115377500Y-94525325D01*
X115381176Y-94488000D01*
X115377500Y-94450675D01*
X115377500Y-94450667D01*
X115366503Y-94339014D01*
X115323046Y-94195753D01*
X115252474Y-94063724D01*
X115157501Y-93947999D01*
X115128502Y-93924201D01*
X114419303Y-93215002D01*
X114395501Y-93185999D01*
X114279776Y-93091026D01*
X114147747Y-93020454D01*
X114004486Y-92976997D01*
X113892833Y-92966000D01*
X113892822Y-92966000D01*
X113855500Y-92962324D01*
X113818178Y-92966000D01*
X108789333Y-92966000D01*
X108752000Y-92962323D01*
X108714667Y-92966000D01*
X108603014Y-92976997D01*
X108459753Y-93020454D01*
X108327724Y-93091026D01*
X108211999Y-93185999D01*
X108188201Y-93214997D01*
X105057201Y-96345998D01*
X104950156Y-96345998D01*
X105071476Y-96116110D01*
X104979352Y-95853142D01*
X104832496Y-95601807D01*
X104639429Y-95383951D01*
X104407570Y-95207947D01*
X104145830Y-95080558D01*
X103864267Y-95006680D01*
X103632000Y-95146835D01*
X103632000Y-96346000D01*
X103652000Y-96346000D01*
X103652000Y-96600000D01*
X103632000Y-96600000D01*
X103632000Y-96620000D01*
X103378000Y-96620000D01*
X103378000Y-96600000D01*
X102059845Y-96600000D01*
X101938524Y-96829890D01*
X102030648Y-97092858D01*
X102177504Y-97344193D01*
X102370571Y-97562049D01*
X102576722Y-97718538D01*
X102550986Y-97732294D01*
X102324866Y-97917866D01*
X102139294Y-98143986D01*
X102001401Y-98401966D01*
X101916487Y-98681889D01*
X101887815Y-98973000D01*
X100672500Y-98973000D01*
X100672500Y-96116110D01*
X101938524Y-96116110D01*
X102059845Y-96346000D01*
X103378000Y-96346000D01*
X103378000Y-95146835D01*
X103145733Y-95006680D01*
X102864170Y-95080558D01*
X102602430Y-95207947D01*
X102370571Y-95383951D01*
X102177504Y-95601807D01*
X102030648Y-95853142D01*
X101938524Y-96116110D01*
X100672500Y-96116110D01*
X100672500Y-89464655D01*
X102040450Y-89464655D01*
X102436634Y-89985050D01*
X103151612Y-90375248D01*
X103928976Y-90618464D01*
X104738853Y-90705351D01*
X105550118Y-90632569D01*
X106331597Y-90402915D01*
X107053256Y-90025215D01*
X107113366Y-89985050D01*
X107509550Y-89464655D01*
X104775000Y-86730105D01*
X102040450Y-89464655D01*
X100672500Y-89464655D01*
X100672500Y-87097884D01*
X100692931Y-87325618D01*
X100922585Y-88107097D01*
X101300285Y-88828756D01*
X101340450Y-88888866D01*
X101860845Y-89285050D01*
X104595395Y-86550500D01*
X104954605Y-86550500D01*
X107689155Y-89285050D01*
X108209550Y-88888866D01*
X108599748Y-88173888D01*
X108842964Y-87396524D01*
X108888372Y-86973267D01*
X126288680Y-86973267D01*
X126362558Y-87254830D01*
X126489947Y-87516570D01*
X126665951Y-87748429D01*
X126883807Y-87941496D01*
X127135142Y-88088352D01*
X127398110Y-88180476D01*
X127628000Y-88059155D01*
X127628000Y-86741000D01*
X126428835Y-86741000D01*
X126288680Y-86973267D01*
X108888372Y-86973267D01*
X108929851Y-86586647D01*
X108900074Y-86254733D01*
X126288680Y-86254733D01*
X126428835Y-86487000D01*
X127628000Y-86487000D01*
X127628000Y-85168845D01*
X127882000Y-85168845D01*
X127882000Y-86487000D01*
X127902000Y-86487000D01*
X127902000Y-86741000D01*
X127882000Y-86741000D01*
X127882000Y-88059155D01*
X128111890Y-88180476D01*
X128374858Y-88088352D01*
X128626193Y-87941496D01*
X128844049Y-87748429D01*
X129000538Y-87542278D01*
X129014294Y-87568013D01*
X129199866Y-87794134D01*
X129425986Y-87979706D01*
X129456846Y-87996201D01*
X129481480Y-88077405D01*
X129503038Y-88148473D01*
X129578251Y-88289189D01*
X129632852Y-88355720D01*
X129679473Y-88412528D01*
X129710383Y-88437895D01*
X131460500Y-90188013D01*
X131460501Y-93646799D01*
X131353295Y-93807244D01*
X131275274Y-93995602D01*
X131235500Y-94195561D01*
X131235500Y-94399439D01*
X131275274Y-94599398D01*
X131353295Y-94787756D01*
X131466563Y-94957274D01*
X131610726Y-95101437D01*
X131780244Y-95214705D01*
X131968602Y-95292726D01*
X132168561Y-95332500D01*
X132372439Y-95332500D01*
X132572398Y-95292726D01*
X132760756Y-95214705D01*
X132930274Y-95101437D01*
X133074437Y-94957274D01*
X133187705Y-94787756D01*
X133265726Y-94599398D01*
X133305500Y-94399439D01*
X133305500Y-94195561D01*
X133291664Y-94126000D01*
X133324939Y-94126000D01*
X133524898Y-94086226D01*
X133713256Y-94008205D01*
X133882774Y-93894937D01*
X134026937Y-93750774D01*
X134140205Y-93581256D01*
X134218226Y-93392898D01*
X134258000Y-93192939D01*
X134258000Y-92989061D01*
X134218226Y-92789102D01*
X134140205Y-92600744D01*
X134033000Y-92440300D01*
X134033000Y-89464655D01*
X152078450Y-89464655D01*
X152474634Y-89985050D01*
X153189612Y-90375248D01*
X153966976Y-90618464D01*
X154776853Y-90705351D01*
X155588118Y-90632569D01*
X156369597Y-90402915D01*
X157091256Y-90025215D01*
X157151366Y-89985050D01*
X157547550Y-89464655D01*
X154813000Y-86730105D01*
X152078450Y-89464655D01*
X134033000Y-89464655D01*
X134033000Y-89193788D01*
X134036919Y-89154000D01*
X134027466Y-89058023D01*
X134021280Y-88995212D01*
X133974963Y-88842527D01*
X133912566Y-88725790D01*
X133899749Y-88701810D01*
X133857983Y-88650919D01*
X133798528Y-88578472D01*
X133767612Y-88553100D01*
X133565000Y-88350488D01*
X133565000Y-87989869D01*
X133584013Y-87979706D01*
X133810134Y-87794134D01*
X133862223Y-87730663D01*
X133916595Y-87832386D01*
X134027038Y-87966962D01*
X134161614Y-88077405D01*
X134315150Y-88159472D01*
X134481746Y-88210008D01*
X134655000Y-88227072D01*
X135855000Y-88227072D01*
X136028254Y-88210008D01*
X136194850Y-88159472D01*
X136348386Y-88077405D01*
X136482962Y-87966962D01*
X136593405Y-87832386D01*
X136675472Y-87678850D01*
X136726008Y-87512254D01*
X136743072Y-87339000D01*
X136743072Y-86514353D01*
X150658149Y-86514353D01*
X150730931Y-87325618D01*
X150960585Y-88107097D01*
X151338285Y-88828756D01*
X151378450Y-88888866D01*
X151898845Y-89285050D01*
X154633395Y-86550500D01*
X151898845Y-83815950D01*
X151378450Y-84212134D01*
X150988252Y-84927112D01*
X150745036Y-85704476D01*
X150658149Y-86514353D01*
X136743072Y-86514353D01*
X136743072Y-85889000D01*
X136739132Y-85849000D01*
X136976637Y-85849000D01*
X137215236Y-85801540D01*
X137439992Y-85708443D01*
X137642267Y-85573287D01*
X137814287Y-85401267D01*
X137949443Y-85198992D01*
X138042540Y-84974236D01*
X138090000Y-84735637D01*
X138090000Y-84492363D01*
X138042540Y-84253764D01*
X137949443Y-84029008D01*
X137814287Y-83826733D01*
X137642267Y-83654713D01*
X137439992Y-83519557D01*
X137215236Y-83426460D01*
X136976637Y-83379000D01*
X136733363Y-83379000D01*
X136494764Y-83426460D01*
X136270008Y-83519557D01*
X136067733Y-83654713D01*
X135895713Y-83826733D01*
X135760557Y-84029008D01*
X135667460Y-84253764D01*
X135620000Y-84492363D01*
X135620000Y-84735637D01*
X135667460Y-84974236D01*
X135678516Y-85000928D01*
X134655000Y-85000928D01*
X134481746Y-85017992D01*
X134315150Y-85068528D01*
X134161614Y-85150595D01*
X134027038Y-85261038D01*
X133916595Y-85395614D01*
X133862223Y-85497337D01*
X133810134Y-85433866D01*
X133584014Y-85248294D01*
X133326034Y-85110401D01*
X133046111Y-85025487D01*
X132755000Y-84996815D01*
X132463890Y-85025487D01*
X132183967Y-85110401D01*
X131925987Y-85248294D01*
X131699866Y-85433866D01*
X131514294Y-85659986D01*
X131505000Y-85677374D01*
X131495706Y-85659986D01*
X131310134Y-85433866D01*
X131084014Y-85248294D01*
X130826034Y-85110401D01*
X130546111Y-85025487D01*
X130255000Y-84996815D01*
X129963890Y-85025487D01*
X129683967Y-85110401D01*
X129425987Y-85248294D01*
X129199866Y-85433866D01*
X129014294Y-85659986D01*
X129000538Y-85685722D01*
X128844049Y-85479571D01*
X128626193Y-85286504D01*
X128374858Y-85139648D01*
X128111890Y-85047524D01*
X127882000Y-85168845D01*
X127628000Y-85168845D01*
X127398110Y-85047524D01*
X127135142Y-85139648D01*
X126883807Y-85286504D01*
X126665951Y-85479571D01*
X126489947Y-85711430D01*
X126362558Y-85973170D01*
X126288680Y-86254733D01*
X108900074Y-86254733D01*
X108857069Y-85775382D01*
X108627415Y-84993903D01*
X108249715Y-84272244D01*
X108209550Y-84212134D01*
X107689155Y-83815950D01*
X104954605Y-86550500D01*
X104595395Y-86550500D01*
X101860845Y-83815950D01*
X101340450Y-84212134D01*
X100950252Y-84927112D01*
X100707036Y-85704476D01*
X100672500Y-86026387D01*
X100672500Y-82892500D01*
X102846941Y-82892500D01*
X102496744Y-83075785D01*
G37*
%TD.AperFunction*%
D19*
X130455811Y-101152918D02*
X130578481Y-101165000D01*
X130578491Y-101165000D01*
X130619499Y-101169039D01*
X130660507Y-101165000D01*
X134260715Y-101165000D01*
X134383744Y-101247205D01*
X134572102Y-101325226D01*
X134772061Y-101365000D01*
X134975939Y-101365000D01*
X135175898Y-101325226D01*
X135364256Y-101247205D01*
X135461000Y-101182563D01*
X135461001Y-107614486D01*
X132433888Y-110641600D01*
X132402972Y-110666972D01*
X132333203Y-110751987D01*
X132301751Y-110790311D01*
X132289486Y-110813258D01*
X132226537Y-110931028D01*
X132180220Y-111083713D01*
X132168500Y-111202709D01*
X132167781Y-111210016D01*
X132149487Y-111219794D01*
X131923366Y-111405366D01*
X131737794Y-111631486D01*
X131599901Y-111889466D01*
X131514987Y-112169389D01*
X131493500Y-112387550D01*
X131493500Y-112783449D01*
X131514987Y-113001610D01*
X131590355Y-113250066D01*
X130456000Y-112115711D01*
X130456000Y-102155295D01*
X130516226Y-102009898D01*
X130556000Y-101809939D01*
X130556000Y-101606061D01*
X130516226Y-101406102D01*
X130438205Y-101217744D01*
X130379403Y-101129740D01*
X130455811Y-101152918D01*
%TA.AperFunction,Conductor*%
D20*
G36*
X130455811Y-101152918D02*
G01*
X130578481Y-101165000D01*
X130578491Y-101165000D01*
X130619499Y-101169039D01*
X130660507Y-101165000D01*
X134260715Y-101165000D01*
X134383744Y-101247205D01*
X134572102Y-101325226D01*
X134772061Y-101365000D01*
X134975939Y-101365000D01*
X135175898Y-101325226D01*
X135364256Y-101247205D01*
X135461000Y-101182563D01*
X135461001Y-107614486D01*
X132433888Y-110641600D01*
X132402972Y-110666972D01*
X132333203Y-110751987D01*
X132301751Y-110790311D01*
X132289486Y-110813258D01*
X132226537Y-110931028D01*
X132180220Y-111083713D01*
X132168500Y-111202709D01*
X132167781Y-111210016D01*
X132149487Y-111219794D01*
X131923366Y-111405366D01*
X131737794Y-111631486D01*
X131599901Y-111889466D01*
X131514987Y-112169389D01*
X131493500Y-112387550D01*
X131493500Y-112783449D01*
X131514987Y-113001610D01*
X131590355Y-113250066D01*
X130456000Y-112115711D01*
X130456000Y-102155295D01*
X130516226Y-102009898D01*
X130556000Y-101809939D01*
X130556000Y-101606061D01*
X130516226Y-101406102D01*
X130438205Y-101217744D01*
X130379403Y-101129740D01*
X130455811Y-101152918D01*
G37*
%TD.AperFunction*%
%TD*%
M02*
