<!--This work is licensed under a Creative Commons Attribution-ShareAlike 4.0 International License (CC BY-SA) with Design Exception 1.0-->
<eagle version="7.1.0">
<drawing>
<settings>
<setting alwaysvectorfont="no"/>
<setting verticaltext="up"/>
</settings>
<grid distance="0.1" unitdist="inch" unit="inch" style="lines" multiple="1" display="no" altdistance="0.01" altunitdist="inch" altunit="inch"/>
<layers>
<layer number="1" name="Top" color="4" fill="1" visible="yes" active="yes"/>
<layer number="16" name="Bottom" color="1" fill="1" visible="yes" active="yes"/>
<layer number="17" name="Pads" color="2" fill="1" visible="yes" active="yes"/>
<layer number="18" name="Vias" color="2" fill="1" visible="yes" active="yes"/>
<layer number="19" name="Unrouted" color="6" fill="1" visible="yes" active="yes"/>
<layer number="20" name="Dimension" color="15" fill="1" visible="yes" active="yes"/>
<layer number="21" name="tPlace" color="7" fill="1" visible="yes" active="yes"/>
<layer number="22" name="bPlace" color="7" fill="1" visible="yes" active="yes"/>
<layer number="23" name="tOrigins" color="15" fill="1" visible="yes" active="yes"/>
<layer number="24" name="bOrigins" color="15" fill="1" visible="yes" active="yes"/>
<layer number="25" name="tNames" color="7" fill="1" visible="yes" active="yes"/>
<layer number="26" name="bNames" color="7" fill="1" visible="yes" active="yes"/>
<layer number="27" name="tValues" color="7" fill="1" visible="yes" active="yes"/>
<layer number="28" name="bValues" color="7" fill="1" visible="yes" active="yes"/>
<layer number="29" name="tStop" color="7" fill="3" visible="yes" active="yes"/>
<layer number="30" name="bStop" color="7" fill="6" visible="no" active="yes"/>
<layer number="31" name="tCream" color="7" fill="4" visible="yes" active="yes"/>
<layer number="32" name="bCream" color="7" fill="5" visible="no" active="yes"/>
<layer number="33" name="tFinish" color="6" fill="3" visible="no" active="yes"/>
<layer number="34" name="bFinish" color="6" fill="6" visible="no" active="yes"/>
<layer number="35" name="tGlue" color="7" fill="4" visible="no" active="yes"/>
<layer number="36" name="bGlue" color="7" fill="5" visible="no" active="yes"/>
<layer number="37" name="tTest" color="7" fill="1" visible="no" active="yes"/>
<layer number="38" name="bTest" color="7" fill="1" visible="no" active="yes"/>
<layer number="39" name="tKeepout" color="4" fill="11" visible="yes" active="yes"/>
<layer number="40" name="bKeepout" color="1" fill="11" visible="yes" active="yes"/>
<layer number="41" name="tRestrict" color="4" fill="10" visible="yes" active="yes"/>
<layer number="42" name="bRestrict" color="1" fill="10" visible="yes" active="yes"/>
<layer number="43" name="vRestrict" color="2" fill="10" visible="yes" active="yes"/>
<layer number="44" name="Drills" color="7" fill="1" visible="no" active="yes"/>
<layer number="45" name="Holes" color="7" fill="1" visible="no" active="yes"/>
<layer number="46" name="Milling" color="3" fill="1" visible="no" active="yes"/>
<layer number="47" name="Measures" color="7" fill="1" visible="no" active="yes"/>
<layer number="48" name="Document" color="7" fill="1" visible="yes" active="yes"/>
<layer number="49" name="Reference" color="7" fill="1" visible="yes" active="yes"/>
<layer number="51" name="tDocu" color="7" fill="1" visible="yes" active="yes"/>
<layer number="52" name="bDocu" color="7" fill="1" visible="yes" active="yes"/>
<layer number="90" name="Modules" color="5" fill="1" visible="yes" active="yes"/>
<layer number="91" name="Nets" color="2" fill="1" visible="yes" active="yes"/>
<layer number="92" name="Busses" color="1" fill="1" visible="yes" active="yes"/>
<layer number="93" name="Pins" color="2" fill="1" visible="yes" active="yes"/>
<layer number="94" name="Symbols" color="4" fill="1" visible="yes" active="yes"/>
<layer number="95" name="Names" color="7" fill="1" visible="yes" active="yes"/>
<layer number="96" name="Values" color="7" fill="1" visible="yes" active="yes"/>
<layer number="97" name="Info" color="7" fill="1" visible="yes" active="yes"/>
<layer number="98" name="Guide" color="6" fill="1" visible="yes" active="yes"/>
</layers>
<library>
<packages>
<package name="CUI_TB004-508-03BE">
<wire x1="-2.54" y1="-5.1" x2="-2.54" y2="5.1" width="0.127" layer="51"/>
<wire x1="-2.54" y1="5.1" x2="12.7" y2="5.1" width="0.127" layer="51"/>
<wire x1="12.7" y1="5.1" x2="12.7" y2="-5.1" width="0.127" layer="51"/>
<wire x1="12.7" y1="-5.1" x2="-2.54" y2="-5.1" width="0.127" layer="51"/>
<wire x1="-2.54" y1="-5.1" x2="-2.54" y2="5.1" width="0.127" layer="21"/>
<wire x1="12.7" y1="5.1" x2="12.7" y2="-5.1" width="0.127" layer="21"/>
<wire x1="-2.54" y1="5.1" x2="12.7" y2="5.1" width="0.127" layer="21"/>
<wire x1="12.7" y1="-5.1" x2="-2.54" y2="-5.1" width="0.127" layer="21"/>
<wire x1="-2.79" y1="5.35" x2="12.95" y2="5.35" width="0.05" layer="39"/>
<wire x1="12.95" y1="-5.35" x2="-2.79" y2="-5.35" width="0.05" layer="39"/>
<wire x1="-2.79" y1="-5.35" x2="-2.79" y2="5.35" width="0.05" layer="39"/>
<wire x1="12.95" y1="5.35" x2="12.95" y2="-5.35" width="0.05" layer="39"/>
<text x="-3.54" y="6.1" size="1.778" layer="25">&gt;NAME</text>
<text x="-3.54" y="-7.35" size="1.778" layer="27">&gt;VALUE</text>
<circle x="0" y="6.1" radius="0.1" width="0.2" layer="21"/>
<circle x="0" y="6.1" radius="0.1" width="0.2" layer="51"/>
<pad name="1" x="0" y="0" drill="1.6" shape="square"/>
<pad name="2" x="5.08" y="0" drill="1.6"/>
<pad name="3" x="10.16" y="0" drill="1.6"/>
</package>
</packages>
<symbols>
<symbol name="TB004-508-03BE">
<wire x1="-5.08" y1="-5.08" x2="-5.08" y2="5.08" width="0.254" layer="94"/>
<wire x1="-5.08" y1="5.08" x2="5.08" y2="5.08" width="0.254" layer="94"/>
<wire x1="5.08" y1="5.08" x2="5.08" y2="-5.08" width="0.254" layer="94"/>
<wire x1="5.08" y1="-5.08" x2="-5.08" y2="-5.08" width="0.254" layer="94"/>
<text x="-5.58" y="5.08" size="1.778" layer="95">&gt;NAME</text>
<text x="-5.08" y="-7.62" size="1.778" layer="96">&gt;VALUE</text>
<pin name="1" x="-10.16" y="2.54" length="middle" direction="pas"/>
<pin name="2" x="-10.16" y="0" length="middle" direction="pas"/>
<pin name="3" x="-10.16" y="-2.54" length="middle" direction="pas"/>
</symbol>
</symbols>
<devicesets>
<deviceset name="TB004-508-03BE" prefix="J">
<description> &lt;a href="https://pricing.snapeda.com/parts/TB004-508-03BE/CUI%20Devices/view-part?ref=eda"&gt;Check prices&lt;/a&gt;</description>
<gates>
<gate name="G$1" symbol="TB004-508-03BE" x="0" y="0"/>
</gates>
<devices>
<device name="" package="CUI_TB004-508-03BE">
<connects>
<connect gate="G$1" pin="1" pad="1"/>
<connect gate="G$1" pin="2" pad="2"/>
<connect gate="G$1" pin="3" pad="3"/>
</connects>
<technologies>
<technology name="">
<attribute name="Purchase-URL" value="https://pricing.snapeda.com/search/part/TB004-508-03BE/?ref=eda"/>
<attribute name="Description" value="2~24 Poles, Screw Type, Horizontal, 5.08 Pitch, 24~12 (AWG), Terminal Block Connector"/>
<attribute name="MP" value="TB004-508-03BE"/>
<attribute name="Package" value="None"/>
<attribute name="Price" value="None"/>
<attribute name="Availability" value="Good"/>
<attribute name="CUI_purchase_URL" value="https://www.cuidevices.com/product/interconnect/connectors/terminal-blocks/tb004-508-series?utm_source=snapeda.com&amp;utm_medium=referral&amp;utm_campaign=snapedaBOM"/>
<attribute name="MF" value="CUI Devices"/>
</technology>
</technologies>
</device>
</devices>
</deviceset>
</devicesets>
</library>
</drawing>
</eagle>
