G04 EAGLE Gerber RS-274X export*
G75*
%MOMM*%
%FSLAX34Y34*%
%LPD*%
%INBottom Copper*%
%IPPOS*%
%AMOC8*
5,1,8,0,0,1.08239X$1,22.5*%
G01*
%ADD10C,1.879600*%
%ADD11P,1.649562X8X202.500000*%
%ADD12C,1.524000*%
%ADD13C,0.756400*%
%ADD14C,0.508000*%

G36*
X464020Y10164D02*
X464020Y10164D01*
X464039Y10162D01*
X464141Y10184D01*
X464243Y10200D01*
X464260Y10210D01*
X464280Y10214D01*
X464369Y10267D01*
X464460Y10316D01*
X464474Y10330D01*
X464491Y10340D01*
X464558Y10419D01*
X464630Y10494D01*
X464638Y10512D01*
X464651Y10527D01*
X464690Y10623D01*
X464733Y10717D01*
X464735Y10737D01*
X464743Y10755D01*
X464761Y10922D01*
X464761Y333078D01*
X464758Y333098D01*
X464760Y333117D01*
X464738Y333219D01*
X464722Y333321D01*
X464712Y333338D01*
X464708Y333358D01*
X464655Y333447D01*
X464606Y333538D01*
X464592Y333552D01*
X464582Y333569D01*
X464503Y333636D01*
X464428Y333708D01*
X464410Y333716D01*
X464395Y333729D01*
X464299Y333768D01*
X464205Y333811D01*
X464185Y333813D01*
X464167Y333821D01*
X464000Y333839D01*
X-11078Y333839D01*
X-11098Y333836D01*
X-11117Y333838D01*
X-11219Y333816D01*
X-11321Y333800D01*
X-11338Y333790D01*
X-11358Y333786D01*
X-11447Y333733D01*
X-11538Y333684D01*
X-11552Y333670D01*
X-11569Y333660D01*
X-11636Y333581D01*
X-11708Y333506D01*
X-11716Y333488D01*
X-11729Y333473D01*
X-11768Y333377D01*
X-11811Y333283D01*
X-11813Y333263D01*
X-11821Y333245D01*
X-11839Y333078D01*
X-11839Y10922D01*
X-11836Y10902D01*
X-11838Y10883D01*
X-11816Y10781D01*
X-11800Y10679D01*
X-11790Y10662D01*
X-11786Y10642D01*
X-11733Y10553D01*
X-11684Y10462D01*
X-11670Y10448D01*
X-11660Y10431D01*
X-11581Y10364D01*
X-11506Y10292D01*
X-11488Y10284D01*
X-11473Y10271D01*
X-11377Y10232D01*
X-11283Y10189D01*
X-11263Y10187D01*
X-11245Y10179D01*
X-11078Y10161D01*
X464000Y10161D01*
X464020Y10164D01*
G37*
%LPC*%
G36*
X97802Y134693D02*
X97802Y134693D01*
X94693Y137802D01*
X94693Y142198D01*
X96957Y144462D01*
X96968Y144478D01*
X96984Y144490D01*
X97040Y144578D01*
X97100Y144661D01*
X97106Y144680D01*
X97117Y144697D01*
X97142Y144798D01*
X97173Y144897D01*
X97172Y144916D01*
X97177Y144936D01*
X97169Y145039D01*
X97166Y145142D01*
X97160Y145161D01*
X97158Y145181D01*
X97118Y145276D01*
X97082Y145373D01*
X97069Y145389D01*
X97062Y145407D01*
X96957Y145538D01*
X94693Y147802D01*
X94693Y152198D01*
X96957Y154462D01*
X96968Y154478D01*
X96984Y154490D01*
X97040Y154578D01*
X97100Y154661D01*
X97106Y154680D01*
X97117Y154697D01*
X97142Y154798D01*
X97173Y154897D01*
X97172Y154916D01*
X97177Y154936D01*
X97169Y155039D01*
X97166Y155142D01*
X97160Y155161D01*
X97158Y155181D01*
X97118Y155276D01*
X97082Y155373D01*
X97069Y155389D01*
X97062Y155407D01*
X96957Y155538D01*
X94693Y157802D01*
X94693Y162198D01*
X95712Y163217D01*
X95765Y163291D01*
X95825Y163361D01*
X95837Y163391D01*
X95856Y163417D01*
X95883Y163504D01*
X95917Y163589D01*
X95921Y163630D01*
X95928Y163652D01*
X95927Y163684D01*
X95935Y163755D01*
X95935Y167300D01*
X97029Y168394D01*
X97070Y168452D01*
X97120Y168504D01*
X97142Y168551D01*
X97172Y168593D01*
X97193Y168662D01*
X97223Y168727D01*
X97229Y168779D01*
X97244Y168829D01*
X97243Y168900D01*
X97250Y168971D01*
X97239Y169022D01*
X97238Y169074D01*
X97213Y169142D01*
X97198Y169212D01*
X97172Y169257D01*
X97154Y169305D01*
X97109Y169361D01*
X97072Y169423D01*
X97032Y169457D01*
X97000Y169497D01*
X96940Y169536D01*
X96885Y169583D01*
X96837Y169602D01*
X96793Y169630D01*
X96724Y169648D01*
X96657Y169675D01*
X96586Y169683D01*
X96554Y169691D01*
X96531Y169689D01*
X96490Y169693D01*
X95802Y169693D01*
X92693Y172802D01*
X92693Y177198D01*
X95802Y180307D01*
X97243Y180307D01*
X97333Y180321D01*
X97424Y180329D01*
X97454Y180341D01*
X97486Y180346D01*
X97566Y180389D01*
X97650Y180425D01*
X97683Y180451D01*
X97703Y180462D01*
X97725Y180485D01*
X97781Y180530D01*
X99645Y182394D01*
X99687Y182452D01*
X99737Y182504D01*
X99759Y182551D01*
X99789Y182593D01*
X99810Y182662D01*
X99840Y182727D01*
X99846Y182779D01*
X99861Y182829D01*
X99859Y182900D01*
X99867Y182971D01*
X99856Y183022D01*
X99855Y183074D01*
X99830Y183142D01*
X99815Y183212D01*
X99788Y183257D01*
X99770Y183305D01*
X99726Y183361D01*
X99689Y183423D01*
X99649Y183457D01*
X99617Y183497D01*
X99556Y183536D01*
X99502Y183583D01*
X99454Y183602D01*
X99410Y183630D01*
X99340Y183648D01*
X99274Y183675D01*
X99202Y183683D01*
X99171Y183691D01*
X99148Y183689D01*
X99107Y183693D01*
X95802Y183693D01*
X92693Y186802D01*
X92693Y191198D01*
X93712Y192217D01*
X93765Y192291D01*
X93825Y192361D01*
X93837Y192391D01*
X93856Y192417D01*
X93883Y192504D01*
X93917Y192589D01*
X93921Y192630D01*
X93928Y192652D01*
X93927Y192684D01*
X93935Y192755D01*
X93935Y249584D01*
X96539Y252188D01*
X117232Y272881D01*
X117285Y272955D01*
X117345Y273024D01*
X117357Y273054D01*
X117376Y273080D01*
X117403Y273167D01*
X117437Y273252D01*
X117441Y273293D01*
X117448Y273315D01*
X117447Y273348D01*
X117455Y273419D01*
X117455Y285939D01*
X118847Y289300D01*
X121420Y291873D01*
X124781Y293265D01*
X128419Y293265D01*
X131780Y291873D01*
X134353Y289300D01*
X135745Y285939D01*
X135745Y267061D01*
X134353Y263700D01*
X131780Y261127D01*
X128419Y259735D01*
X124781Y259735D01*
X121420Y261127D01*
X119736Y262811D01*
X119720Y262823D01*
X119708Y262838D01*
X119620Y262894D01*
X119536Y262955D01*
X119517Y262961D01*
X119501Y262971D01*
X119400Y262997D01*
X119301Y263027D01*
X119281Y263027D01*
X119262Y263031D01*
X119159Y263023D01*
X119055Y263021D01*
X119037Y263014D01*
X119017Y263012D01*
X118922Y262972D01*
X118824Y262936D01*
X118809Y262924D01*
X118791Y262916D01*
X118660Y262811D01*
X102288Y246439D01*
X102235Y246365D01*
X102175Y246296D01*
X102163Y246266D01*
X102144Y246240D01*
X102117Y246153D01*
X102083Y246068D01*
X102079Y246027D01*
X102072Y246004D01*
X102073Y245972D01*
X102065Y245901D01*
X102065Y192755D01*
X102079Y192665D01*
X102087Y192574D01*
X102099Y192545D01*
X102104Y192513D01*
X102147Y192432D01*
X102183Y192348D01*
X102209Y192316D01*
X102220Y192295D01*
X102243Y192273D01*
X102288Y192217D01*
X103307Y191198D01*
X103307Y186980D01*
X103310Y186960D01*
X103308Y186941D01*
X103330Y186839D01*
X103346Y186737D01*
X103356Y186720D01*
X103360Y186700D01*
X103413Y186611D01*
X103462Y186520D01*
X103476Y186506D01*
X103486Y186489D01*
X103565Y186422D01*
X103640Y186350D01*
X103658Y186342D01*
X103673Y186329D01*
X103769Y186290D01*
X103863Y186247D01*
X103883Y186245D01*
X103901Y186237D01*
X104068Y186219D01*
X105199Y186219D01*
X105289Y186233D01*
X105380Y186241D01*
X105409Y186253D01*
X105441Y186258D01*
X105522Y186301D01*
X105606Y186337D01*
X105638Y186363D01*
X105659Y186374D01*
X105681Y186397D01*
X105737Y186442D01*
X177731Y258436D01*
X177773Y258494D01*
X177822Y258546D01*
X177844Y258593D01*
X177875Y258635D01*
X177896Y258704D01*
X177926Y258769D01*
X177932Y258821D01*
X177947Y258871D01*
X177945Y258942D01*
X177953Y259013D01*
X177942Y259064D01*
X177941Y259116D01*
X177916Y259184D01*
X177901Y259254D01*
X177874Y259299D01*
X177856Y259347D01*
X177811Y259403D01*
X177775Y259465D01*
X177735Y259499D01*
X177702Y259539D01*
X177642Y259578D01*
X177588Y259625D01*
X177539Y259644D01*
X177496Y259672D01*
X177426Y259690D01*
X177359Y259717D01*
X177288Y259725D01*
X177257Y259733D01*
X177234Y259731D01*
X177193Y259735D01*
X175581Y259735D01*
X172220Y261127D01*
X169647Y263700D01*
X168255Y267061D01*
X168255Y285939D01*
X169647Y289300D01*
X172220Y291873D01*
X175581Y293265D01*
X179219Y293265D01*
X182580Y291873D01*
X185153Y289300D01*
X186545Y285939D01*
X186545Y269087D01*
X186556Y269017D01*
X186558Y268945D01*
X186576Y268896D01*
X186584Y268844D01*
X186618Y268781D01*
X186643Y268714D01*
X186675Y268673D01*
X186700Y268627D01*
X186752Y268578D01*
X186796Y268522D01*
X186840Y268494D01*
X186878Y268458D01*
X186943Y268428D01*
X187003Y268389D01*
X187054Y268376D01*
X187101Y268354D01*
X187172Y268346D01*
X187242Y268329D01*
X187294Y268333D01*
X187345Y268327D01*
X187416Y268342D01*
X187487Y268348D01*
X187535Y268368D01*
X187586Y268379D01*
X187647Y268416D01*
X187713Y268444D01*
X187769Y268489D01*
X187797Y268505D01*
X187812Y268523D01*
X187844Y268549D01*
X200960Y281665D01*
X236694Y281665D01*
X236714Y281668D01*
X236733Y281666D01*
X236835Y281688D01*
X236937Y281704D01*
X236954Y281714D01*
X236974Y281718D01*
X237063Y281771D01*
X237154Y281820D01*
X237168Y281834D01*
X237185Y281844D01*
X237252Y281923D01*
X237324Y281998D01*
X237332Y282016D01*
X237345Y282031D01*
X237384Y282127D01*
X237427Y282221D01*
X237429Y282241D01*
X237437Y282259D01*
X237455Y282426D01*
X237455Y287039D01*
X238847Y290400D01*
X241420Y292973D01*
X244781Y294365D01*
X248419Y294365D01*
X251780Y292973D01*
X254353Y290400D01*
X255745Y287039D01*
X255745Y268931D01*
X255756Y268860D01*
X255758Y268788D01*
X255776Y268739D01*
X255784Y268688D01*
X255818Y268625D01*
X255843Y268557D01*
X255875Y268517D01*
X255900Y268471D01*
X255951Y268421D01*
X255996Y268365D01*
X256040Y268337D01*
X256078Y268301D01*
X256143Y268271D01*
X256203Y268232D01*
X256254Y268220D01*
X256301Y268198D01*
X256372Y268190D01*
X256442Y268172D01*
X256494Y268176D01*
X256545Y268171D01*
X256616Y268186D01*
X256687Y268192D01*
X256735Y268212D01*
X256786Y268223D01*
X256847Y268260D01*
X256913Y268288D01*
X256969Y268333D01*
X256997Y268349D01*
X257012Y268367D01*
X257044Y268393D01*
X262632Y273981D01*
X262685Y274055D01*
X262745Y274124D01*
X262757Y274154D01*
X262776Y274180D01*
X262803Y274267D01*
X262837Y274352D01*
X262841Y274393D01*
X262848Y274415D01*
X262847Y274448D01*
X262855Y274519D01*
X262855Y287039D01*
X264247Y290400D01*
X266820Y292973D01*
X270181Y294365D01*
X273819Y294365D01*
X277180Y292973D01*
X279753Y290400D01*
X281145Y287039D01*
X281145Y268161D01*
X279753Y264800D01*
X277180Y262227D01*
X273819Y260835D01*
X270181Y260835D01*
X266820Y262227D01*
X265136Y263911D01*
X265120Y263923D01*
X265108Y263938D01*
X265020Y263994D01*
X264936Y264055D01*
X264917Y264061D01*
X264901Y264071D01*
X264800Y264097D01*
X264701Y264127D01*
X264681Y264127D01*
X264662Y264131D01*
X264559Y264123D01*
X264455Y264121D01*
X264437Y264114D01*
X264417Y264112D01*
X264322Y264072D01*
X264224Y264036D01*
X264209Y264024D01*
X264191Y264016D01*
X264060Y263911D01*
X256984Y256835D01*
X254380Y254231D01*
X215111Y254231D01*
X215041Y254220D01*
X214969Y254218D01*
X214920Y254200D01*
X214869Y254192D01*
X214805Y254158D01*
X214738Y254133D01*
X214697Y254101D01*
X214651Y254076D01*
X214602Y254024D01*
X214546Y253980D01*
X214518Y253936D01*
X214482Y253898D01*
X214452Y253833D01*
X214413Y253773D01*
X214400Y253722D01*
X214378Y253675D01*
X214370Y253604D01*
X214353Y253534D01*
X214357Y253482D01*
X214351Y253431D01*
X214366Y253360D01*
X214372Y253289D01*
X214392Y253241D01*
X214403Y253190D01*
X214440Y253129D01*
X214468Y253063D01*
X214513Y253007D01*
X214530Y252979D01*
X214547Y252964D01*
X214573Y252932D01*
X215307Y252198D01*
X215307Y247802D01*
X212198Y244693D01*
X210757Y244693D01*
X210667Y244679D01*
X210576Y244671D01*
X210546Y244659D01*
X210514Y244654D01*
X210434Y244611D01*
X210350Y244575D01*
X210318Y244549D01*
X210297Y244538D01*
X210275Y244515D01*
X210219Y244470D01*
X111684Y145935D01*
X103755Y145935D01*
X103666Y145921D01*
X103575Y145913D01*
X103545Y145901D01*
X103513Y145896D01*
X103432Y145853D01*
X103348Y145817D01*
X103316Y145791D01*
X103295Y145780D01*
X103273Y145757D01*
X103217Y145712D01*
X103043Y145538D01*
X103032Y145522D01*
X103016Y145510D01*
X102960Y145422D01*
X102900Y145339D01*
X102894Y145320D01*
X102883Y145303D01*
X102858Y145202D01*
X102827Y145104D01*
X102828Y145084D01*
X102823Y145064D01*
X102831Y144961D01*
X102834Y144858D01*
X102840Y144839D01*
X102842Y144819D01*
X102882Y144724D01*
X102918Y144627D01*
X102931Y144611D01*
X102938Y144593D01*
X103043Y144462D01*
X103217Y144288D01*
X103291Y144235D01*
X103361Y144175D01*
X103391Y144163D01*
X103417Y144144D01*
X103504Y144117D01*
X103589Y144083D01*
X103630Y144079D01*
X103652Y144072D01*
X103684Y144073D01*
X103755Y144065D01*
X167801Y144065D01*
X167891Y144079D01*
X167982Y144087D01*
X168012Y144099D01*
X168044Y144104D01*
X168124Y144147D01*
X168208Y144183D01*
X168240Y144209D01*
X168261Y144220D01*
X168283Y144243D01*
X168339Y144288D01*
X289055Y265003D01*
X289122Y265097D01*
X289193Y265192D01*
X289195Y265198D01*
X289198Y265203D01*
X289232Y265314D01*
X289269Y265426D01*
X289269Y265432D01*
X289271Y265438D01*
X289268Y265555D01*
X289266Y265672D01*
X289264Y265679D01*
X289264Y265684D01*
X289258Y265701D01*
X289220Y265833D01*
X288255Y268161D01*
X288255Y287039D01*
X289647Y290400D01*
X292220Y292973D01*
X295581Y294365D01*
X299219Y294365D01*
X302580Y292973D01*
X305153Y290400D01*
X306545Y287039D01*
X306545Y268161D01*
X305153Y264800D01*
X302580Y262227D01*
X299219Y260835D01*
X296699Y260835D01*
X296609Y260821D01*
X296518Y260813D01*
X296488Y260801D01*
X296456Y260796D01*
X296376Y260753D01*
X296292Y260717D01*
X296260Y260691D01*
X296239Y260680D01*
X296217Y260657D01*
X296161Y260612D01*
X171484Y135935D01*
X103755Y135935D01*
X103665Y135921D01*
X103574Y135913D01*
X103545Y135901D01*
X103513Y135896D01*
X103432Y135853D01*
X103348Y135817D01*
X103316Y135791D01*
X103295Y135780D01*
X103273Y135757D01*
X103217Y135712D01*
X102198Y134693D01*
X97802Y134693D01*
G37*
%LPD*%
%LPC*%
G36*
X92040Y18873D02*
X92040Y18873D01*
X75249Y35664D01*
X72645Y38268D01*
X72645Y57307D01*
X72631Y57397D01*
X72623Y57488D01*
X72611Y57518D01*
X72606Y57550D01*
X72563Y57631D01*
X72527Y57715D01*
X72501Y57747D01*
X72490Y57767D01*
X72467Y57790D01*
X72422Y57846D01*
X57846Y72422D01*
X57772Y72475D01*
X57702Y72535D01*
X57672Y72547D01*
X57646Y72566D01*
X57559Y72593D01*
X57474Y72627D01*
X57433Y72631D01*
X57411Y72638D01*
X57379Y72637D01*
X57307Y72645D01*
X41606Y72645D01*
X39002Y75249D01*
X18539Y95712D01*
X15935Y98316D01*
X15935Y151684D01*
X27016Y162765D01*
X32457Y162765D01*
X32572Y162784D01*
X32688Y162801D01*
X32693Y162803D01*
X32700Y162804D01*
X32802Y162859D01*
X32907Y162912D01*
X32911Y162917D01*
X32917Y162920D01*
X32997Y163004D01*
X33079Y163088D01*
X33083Y163094D01*
X33086Y163098D01*
X33094Y163115D01*
X33160Y163235D01*
X33427Y163880D01*
X34183Y164636D01*
X34225Y164694D01*
X34274Y164746D01*
X34296Y164793D01*
X34327Y164835D01*
X34348Y164904D01*
X34378Y164969D01*
X34384Y165021D01*
X34399Y165071D01*
X34397Y165142D01*
X34405Y165213D01*
X34394Y165264D01*
X34393Y165316D01*
X34368Y165384D01*
X34353Y165454D01*
X34326Y165499D01*
X34308Y165547D01*
X34263Y165603D01*
X34227Y165665D01*
X34187Y165699D01*
X34155Y165739D01*
X34094Y165778D01*
X34040Y165825D01*
X33991Y165844D01*
X33948Y165872D01*
X33878Y165890D01*
X33812Y165917D01*
X33740Y165925D01*
X33709Y165933D01*
X33686Y165931D01*
X33645Y165935D01*
X28316Y165935D01*
X15935Y178316D01*
X15935Y201684D01*
X27816Y213565D01*
X32457Y213565D01*
X32572Y213584D01*
X32688Y213601D01*
X32693Y213603D01*
X32700Y213604D01*
X32802Y213659D01*
X32907Y213712D01*
X32911Y213717D01*
X32917Y213720D01*
X32997Y213804D01*
X33079Y213888D01*
X33083Y213894D01*
X33086Y213898D01*
X33094Y213915D01*
X33160Y214035D01*
X33427Y214680D01*
X36000Y217253D01*
X39361Y218645D01*
X58239Y218645D01*
X61600Y217253D01*
X64173Y214680D01*
X65565Y211319D01*
X65565Y207681D01*
X64173Y204320D01*
X61600Y201747D01*
X58239Y200355D01*
X39361Y200355D01*
X36000Y201747D01*
X33427Y204320D01*
X33160Y204965D01*
X33099Y205065D01*
X33039Y205165D01*
X33034Y205169D01*
X33031Y205174D01*
X32940Y205249D01*
X32852Y205325D01*
X32846Y205327D01*
X32841Y205331D01*
X32733Y205373D01*
X32624Y205417D01*
X32616Y205418D01*
X32611Y205419D01*
X32593Y205420D01*
X32457Y205435D01*
X31499Y205435D01*
X31409Y205421D01*
X31318Y205413D01*
X31288Y205401D01*
X31256Y205396D01*
X31176Y205353D01*
X31092Y205317D01*
X31060Y205291D01*
X31039Y205280D01*
X31017Y205257D01*
X30961Y205212D01*
X24288Y198539D01*
X24235Y198465D01*
X24175Y198396D01*
X24163Y198366D01*
X24144Y198340D01*
X24117Y198253D01*
X24083Y198168D01*
X24079Y198127D01*
X24072Y198104D01*
X24073Y198072D01*
X24065Y198001D01*
X24065Y181999D01*
X24079Y181909D01*
X24087Y181818D01*
X24099Y181788D01*
X24104Y181756D01*
X24147Y181676D01*
X24183Y181592D01*
X24209Y181560D01*
X24220Y181539D01*
X24243Y181517D01*
X24288Y181461D01*
X31461Y174288D01*
X31535Y174235D01*
X31604Y174175D01*
X31634Y174163D01*
X31660Y174144D01*
X31747Y174117D01*
X31832Y174083D01*
X31873Y174079D01*
X31896Y174072D01*
X31928Y174073D01*
X31999Y174065D01*
X33957Y174065D01*
X34047Y174079D01*
X34138Y174087D01*
X34168Y174099D01*
X34200Y174104D01*
X34281Y174147D01*
X34365Y174183D01*
X34397Y174209D01*
X34417Y174220D01*
X34440Y174243D01*
X34496Y174288D01*
X34657Y174449D01*
X36757Y174449D01*
X36853Y174464D01*
X36950Y174474D01*
X36974Y174484D01*
X37000Y174488D01*
X37085Y174534D01*
X37175Y174574D01*
X37194Y174591D01*
X37217Y174604D01*
X37284Y174674D01*
X37356Y174740D01*
X37368Y174763D01*
X37386Y174782D01*
X37427Y174870D01*
X37474Y174956D01*
X37479Y174981D01*
X37490Y175005D01*
X37501Y175102D01*
X37518Y175198D01*
X37514Y175224D01*
X37517Y175249D01*
X37496Y175345D01*
X37482Y175441D01*
X37470Y175464D01*
X37465Y175490D01*
X37415Y175573D01*
X37371Y175660D01*
X37352Y175679D01*
X37339Y175701D01*
X37265Y175764D01*
X37195Y175832D01*
X37167Y175848D01*
X37152Y175861D01*
X37121Y175873D01*
X37048Y175913D01*
X36000Y176347D01*
X33427Y178920D01*
X32035Y182281D01*
X32035Y185919D01*
X33427Y189280D01*
X36000Y191853D01*
X39361Y193245D01*
X58239Y193245D01*
X61600Y191853D01*
X64173Y189280D01*
X65565Y185919D01*
X65565Y182281D01*
X65492Y182105D01*
X65481Y182061D01*
X65462Y182019D01*
X65454Y181942D01*
X65436Y181866D01*
X65440Y181820D01*
X65435Y181775D01*
X65452Y181698D01*
X65459Y181621D01*
X65477Y181579D01*
X65487Y181534D01*
X65527Y181467D01*
X65559Y181396D01*
X65590Y181362D01*
X65613Y181323D01*
X65673Y181272D01*
X65725Y181215D01*
X65765Y181193D01*
X65800Y181163D01*
X65873Y181134D01*
X65941Y181097D01*
X65986Y181088D01*
X66029Y181071D01*
X66164Y181056D01*
X66183Y181053D01*
X66188Y181054D01*
X66195Y181053D01*
X74035Y181053D01*
X90669Y164419D01*
X90669Y101895D01*
X90683Y101805D01*
X90691Y101714D01*
X90703Y101684D01*
X90708Y101652D01*
X90751Y101572D01*
X90787Y101488D01*
X90813Y101456D01*
X90824Y101435D01*
X90847Y101413D01*
X90892Y101357D01*
X120045Y72203D01*
X120140Y72135D01*
X120234Y72065D01*
X120240Y72063D01*
X120245Y72060D01*
X120356Y72026D01*
X120468Y71989D01*
X120474Y71989D01*
X120480Y71987D01*
X120597Y71990D01*
X120714Y71991D01*
X120721Y71994D01*
X120726Y71994D01*
X120743Y72000D01*
X120875Y72038D01*
X122527Y72723D01*
X126873Y72723D01*
X130887Y71060D01*
X133960Y67987D01*
X135623Y63973D01*
X135623Y59627D01*
X133960Y55613D01*
X130887Y52540D01*
X126873Y50877D01*
X122527Y50877D01*
X118513Y52540D01*
X115440Y55613D01*
X113777Y59627D01*
X113777Y63973D01*
X114462Y65625D01*
X114488Y65739D01*
X114517Y65852D01*
X114517Y65859D01*
X114518Y65865D01*
X114507Y65981D01*
X114498Y66098D01*
X114495Y66103D01*
X114495Y66110D01*
X114447Y66217D01*
X114402Y66324D01*
X114397Y66330D01*
X114395Y66334D01*
X114382Y66348D01*
X114297Y66455D01*
X85364Y95387D01*
X85306Y95429D01*
X85254Y95479D01*
X85207Y95501D01*
X85165Y95531D01*
X85096Y95552D01*
X85031Y95582D01*
X84979Y95588D01*
X84929Y95603D01*
X84858Y95601D01*
X84787Y95609D01*
X84736Y95598D01*
X84684Y95597D01*
X84616Y95572D01*
X84546Y95557D01*
X84501Y95530D01*
X84453Y95512D01*
X84397Y95468D01*
X84335Y95431D01*
X84301Y95391D01*
X84261Y95359D01*
X84222Y95298D01*
X84175Y95244D01*
X84156Y95196D01*
X84128Y95152D01*
X84110Y95082D01*
X84083Y95016D01*
X84075Y94944D01*
X84067Y94913D01*
X84069Y94890D01*
X84065Y94849D01*
X84065Y67355D01*
X84079Y67265D01*
X84087Y67174D01*
X84099Y67144D01*
X84104Y67112D01*
X84147Y67032D01*
X84183Y66947D01*
X84209Y66915D01*
X84220Y66895D01*
X84243Y66873D01*
X84288Y66817D01*
X86496Y64609D01*
X86557Y64564D01*
X86612Y64513D01*
X86656Y64493D01*
X86695Y64465D01*
X86768Y64443D01*
X86837Y64412D01*
X86884Y64407D01*
X86930Y64393D01*
X87006Y64395D01*
X87081Y64387D01*
X87128Y64398D01*
X87176Y64399D01*
X87247Y64425D01*
X87321Y64442D01*
X87362Y64467D01*
X87407Y64483D01*
X87466Y64531D01*
X87531Y64570D01*
X87562Y64607D01*
X87599Y64637D01*
X87640Y64701D01*
X87689Y64759D01*
X87716Y64818D01*
X87732Y64844D01*
X87739Y64869D01*
X87758Y64912D01*
X88236Y66383D01*
X89089Y68057D01*
X90194Y69578D01*
X91522Y70906D01*
X93043Y72011D01*
X94717Y72864D01*
X96504Y73445D01*
X97777Y73646D01*
X97777Y62562D01*
X97780Y62542D01*
X97778Y62523D01*
X97800Y62421D01*
X97817Y62319D01*
X97826Y62302D01*
X97830Y62282D01*
X97883Y62193D01*
X97932Y62102D01*
X97946Y62088D01*
X97956Y62071D01*
X98035Y62004D01*
X98110Y61933D01*
X98128Y61924D01*
X98143Y61911D01*
X98239Y61873D01*
X98333Y61829D01*
X98353Y61827D01*
X98371Y61819D01*
X98538Y61801D01*
X99301Y61801D01*
X99301Y61799D01*
X98538Y61799D01*
X98518Y61796D01*
X98499Y61798D01*
X98397Y61776D01*
X98295Y61759D01*
X98278Y61750D01*
X98258Y61746D01*
X98169Y61693D01*
X98078Y61644D01*
X98064Y61630D01*
X98047Y61620D01*
X97980Y61541D01*
X97909Y61466D01*
X97900Y61448D01*
X97887Y61433D01*
X97848Y61337D01*
X97805Y61243D01*
X97803Y61223D01*
X97795Y61205D01*
X97777Y61038D01*
X97777Y49954D01*
X96504Y50155D01*
X94717Y50736D01*
X93043Y51589D01*
X91522Y52694D01*
X90194Y54022D01*
X89089Y55543D01*
X88818Y56074D01*
X88778Y56129D01*
X88746Y56189D01*
X88706Y56227D01*
X88673Y56272D01*
X88617Y56311D01*
X88568Y56358D01*
X88517Y56382D01*
X88471Y56414D01*
X88406Y56433D01*
X88345Y56462D01*
X88289Y56468D01*
X88236Y56484D01*
X88168Y56481D01*
X88101Y56489D01*
X88046Y56477D01*
X87990Y56475D01*
X87926Y56451D01*
X87860Y56437D01*
X87812Y56408D01*
X87760Y56388D01*
X87707Y56345D01*
X87649Y56310D01*
X87613Y56268D01*
X87569Y56232D01*
X87533Y56175D01*
X87489Y56124D01*
X87468Y56072D01*
X87438Y56024D01*
X87423Y55958D01*
X87397Y55895D01*
X87389Y55817D01*
X87381Y55785D01*
X87383Y55764D01*
X87379Y55729D01*
X87379Y54385D01*
X87393Y54295D01*
X87401Y54204D01*
X87413Y54174D01*
X87418Y54142D01*
X87461Y54062D01*
X87497Y53978D01*
X87523Y53946D01*
X87534Y53925D01*
X87557Y53903D01*
X87602Y53847D01*
X94645Y46803D01*
X94740Y46735D01*
X94834Y46665D01*
X94840Y46663D01*
X94845Y46660D01*
X94956Y46625D01*
X95068Y46589D01*
X95074Y46589D01*
X95080Y46587D01*
X95197Y46590D01*
X95314Y46591D01*
X95321Y46594D01*
X95326Y46594D01*
X95343Y46600D01*
X95475Y46638D01*
X97127Y47323D01*
X101473Y47323D01*
X105487Y45660D01*
X108560Y42587D01*
X110223Y38573D01*
X110223Y35871D01*
X110234Y35800D01*
X110236Y35728D01*
X110254Y35679D01*
X110262Y35628D01*
X110296Y35565D01*
X110321Y35497D01*
X110353Y35457D01*
X110378Y35411D01*
X110430Y35361D01*
X110474Y35305D01*
X110518Y35277D01*
X110556Y35241D01*
X110621Y35211D01*
X110681Y35172D01*
X110732Y35160D01*
X110779Y35138D01*
X110850Y35130D01*
X110920Y35112D01*
X110972Y35116D01*
X111023Y35111D01*
X111094Y35126D01*
X111165Y35131D01*
X111213Y35152D01*
X111264Y35163D01*
X111325Y35200D01*
X111391Y35228D01*
X111447Y35272D01*
X111475Y35289D01*
X111490Y35307D01*
X111522Y35332D01*
X113554Y37365D01*
X113607Y37439D01*
X113667Y37508D01*
X113679Y37538D01*
X113698Y37564D01*
X113725Y37651D01*
X113759Y37736D01*
X113763Y37777D01*
X113770Y37799D01*
X113769Y37832D01*
X113777Y37903D01*
X113777Y38573D01*
X115440Y42587D01*
X118513Y45660D01*
X122527Y47323D01*
X126873Y47323D01*
X130887Y45660D01*
X133960Y42587D01*
X135623Y38573D01*
X135623Y34227D01*
X133960Y30213D01*
X130887Y27140D01*
X126873Y25477D01*
X122527Y25477D01*
X118513Y27140D01*
X117208Y28445D01*
X117192Y28457D01*
X117179Y28472D01*
X117092Y28528D01*
X117008Y28588D01*
X116989Y28594D01*
X116972Y28605D01*
X116872Y28630D01*
X116773Y28661D01*
X116753Y28660D01*
X116734Y28665D01*
X116631Y28657D01*
X116527Y28654D01*
X116509Y28648D01*
X116489Y28646D01*
X116394Y28606D01*
X116296Y28570D01*
X116281Y28557D01*
X116262Y28550D01*
X116131Y28445D01*
X106560Y18873D01*
X92040Y18873D01*
G37*
%LPD*%
G36*
X75264Y66918D02*
X75264Y66918D01*
X75316Y66919D01*
X75384Y66944D01*
X75454Y66959D01*
X75499Y66986D01*
X75547Y67004D01*
X75603Y67049D01*
X75665Y67085D01*
X75699Y67125D01*
X75739Y67158D01*
X75778Y67218D01*
X75825Y67272D01*
X75844Y67321D01*
X75872Y67364D01*
X75890Y67434D01*
X75917Y67501D01*
X75925Y67572D01*
X75933Y67603D01*
X75931Y67626D01*
X75935Y67667D01*
X75935Y158001D01*
X75921Y158091D01*
X75913Y158182D01*
X75901Y158212D01*
X75896Y158244D01*
X75853Y158324D01*
X75817Y158408D01*
X75791Y158440D01*
X75780Y158461D01*
X75757Y158483D01*
X75712Y158539D01*
X68155Y166096D01*
X68081Y166149D01*
X68012Y166209D01*
X67982Y166221D01*
X67956Y166240D01*
X67869Y166267D01*
X67784Y166301D01*
X67743Y166305D01*
X67721Y166312D01*
X67688Y166311D01*
X67617Y166319D01*
X63571Y166319D01*
X63500Y166308D01*
X63429Y166306D01*
X63380Y166288D01*
X63328Y166280D01*
X63265Y166246D01*
X63198Y166221D01*
X63157Y166189D01*
X63111Y166164D01*
X63062Y166112D01*
X63006Y166068D01*
X62977Y166024D01*
X62942Y165986D01*
X62911Y165921D01*
X62873Y165861D01*
X62860Y165810D01*
X62838Y165763D01*
X62830Y165692D01*
X62813Y165622D01*
X62817Y165570D01*
X62811Y165519D01*
X62826Y165448D01*
X62832Y165377D01*
X62852Y165329D01*
X62863Y165278D01*
X62900Y165217D01*
X62928Y165151D01*
X62973Y165095D01*
X62989Y165067D01*
X63007Y165052D01*
X63033Y165020D01*
X64173Y163880D01*
X65565Y160519D01*
X65565Y156881D01*
X64173Y153520D01*
X61600Y150947D01*
X58239Y149555D01*
X39361Y149555D01*
X36000Y150947D01*
X33427Y153520D01*
X33160Y154165D01*
X33099Y154265D01*
X33039Y154365D01*
X33034Y154369D01*
X33031Y154374D01*
X32940Y154449D01*
X32852Y154525D01*
X32846Y154527D01*
X32841Y154531D01*
X32733Y154573D01*
X32624Y154617D01*
X32616Y154618D01*
X32611Y154619D01*
X32593Y154620D01*
X32457Y154635D01*
X30699Y154635D01*
X30609Y154621D01*
X30518Y154613D01*
X30488Y154601D01*
X30456Y154596D01*
X30376Y154553D01*
X30292Y154517D01*
X30260Y154491D01*
X30239Y154480D01*
X30217Y154457D01*
X30161Y154412D01*
X24288Y148539D01*
X24235Y148465D01*
X24175Y148396D01*
X24163Y148366D01*
X24144Y148340D01*
X24117Y148253D01*
X24083Y148168D01*
X24079Y148127D01*
X24072Y148104D01*
X24073Y148072D01*
X24065Y148001D01*
X24065Y101999D01*
X24079Y101909D01*
X24087Y101818D01*
X24099Y101788D01*
X24104Y101756D01*
X24147Y101676D01*
X24183Y101592D01*
X24209Y101560D01*
X24220Y101539D01*
X24243Y101517D01*
X24288Y101461D01*
X44751Y80998D01*
X44825Y80945D01*
X44894Y80885D01*
X44924Y80873D01*
X44950Y80854D01*
X45037Y80827D01*
X45122Y80793D01*
X45163Y80789D01*
X45185Y80782D01*
X45218Y80783D01*
X45289Y80775D01*
X60990Y80775D01*
X74636Y67129D01*
X74694Y67087D01*
X74746Y67038D01*
X74793Y67016D01*
X74835Y66985D01*
X74904Y66964D01*
X74969Y66934D01*
X75021Y66928D01*
X75071Y66913D01*
X75142Y66915D01*
X75213Y66907D01*
X75264Y66918D01*
G37*
%LPC*%
G36*
X17568Y20879D02*
X17568Y20879D01*
X8634Y25328D01*
X1910Y32703D01*
X-1695Y42010D01*
X-1695Y51990D01*
X1910Y61297D01*
X8634Y68672D01*
X17568Y73121D01*
X27506Y74042D01*
X37105Y71310D01*
X45070Y65296D01*
X50324Y56810D01*
X52158Y47000D01*
X50324Y37190D01*
X45070Y28704D01*
X37105Y22690D01*
X27506Y19958D01*
X17568Y20879D01*
G37*
%LPD*%
%LPC*%
G36*
X17568Y270879D02*
X17568Y270879D01*
X8634Y275328D01*
X1910Y282703D01*
X-1695Y292010D01*
X-1695Y301990D01*
X1910Y311297D01*
X8634Y318672D01*
X17568Y323121D01*
X27506Y324042D01*
X37105Y321310D01*
X45070Y315296D01*
X50324Y306810D01*
X52158Y297000D01*
X50324Y287190D01*
X45070Y278704D01*
X37105Y272690D01*
X27506Y269958D01*
X17568Y270879D01*
G37*
%LPD*%
%LPC*%
G36*
X39361Y98755D02*
X39361Y98755D01*
X36000Y100147D01*
X33427Y102720D01*
X32035Y106081D01*
X32035Y109719D01*
X33427Y113080D01*
X36000Y115653D01*
X39361Y117045D01*
X58239Y117045D01*
X61600Y115653D01*
X64173Y113080D01*
X65565Y109719D01*
X65565Y106081D01*
X64173Y102720D01*
X61600Y100147D01*
X58239Y98755D01*
X39361Y98755D01*
G37*
%LPD*%
%LPC*%
G36*
X150181Y259735D02*
X150181Y259735D01*
X146820Y261127D01*
X144247Y263700D01*
X142855Y267061D01*
X142855Y285939D01*
X144247Y289300D01*
X146820Y291873D01*
X150181Y293265D01*
X153819Y293265D01*
X157180Y291873D01*
X159753Y289300D01*
X161145Y285939D01*
X161145Y267061D01*
X159753Y263700D01*
X157180Y261127D01*
X153819Y259735D01*
X150181Y259735D01*
G37*
%LPD*%
%LPC*%
G36*
X39361Y225755D02*
X39361Y225755D01*
X36000Y227147D01*
X33427Y229720D01*
X32035Y233081D01*
X32035Y236719D01*
X33427Y240080D01*
X36000Y242653D01*
X39361Y244045D01*
X58239Y244045D01*
X61600Y242653D01*
X64173Y240080D01*
X65565Y236719D01*
X65565Y233081D01*
X64173Y229720D01*
X61600Y227147D01*
X58239Y225755D01*
X39361Y225755D01*
G37*
%LPD*%
%LPC*%
G36*
X377827Y189077D02*
X377827Y189077D01*
X373813Y190740D01*
X370740Y193813D01*
X369077Y197827D01*
X369077Y202173D01*
X370740Y206187D01*
X373813Y209260D01*
X377827Y210923D01*
X382173Y210923D01*
X386187Y209260D01*
X389260Y206187D01*
X390923Y202173D01*
X390923Y197827D01*
X389260Y193813D01*
X386187Y190740D01*
X382173Y189077D01*
X377827Y189077D01*
G37*
%LPD*%
%LPC*%
G36*
X352427Y189077D02*
X352427Y189077D01*
X348413Y190740D01*
X345340Y193813D01*
X343677Y197827D01*
X343677Y202173D01*
X345340Y206187D01*
X348413Y209260D01*
X352427Y210923D01*
X356773Y210923D01*
X360787Y209260D01*
X363860Y206187D01*
X365523Y202173D01*
X365523Y197827D01*
X363860Y193813D01*
X360787Y190740D01*
X356773Y189077D01*
X352427Y189077D01*
G37*
%LPD*%
%LPC*%
G36*
X147927Y25477D02*
X147927Y25477D01*
X143913Y27140D01*
X140840Y30213D01*
X139177Y34227D01*
X139177Y38573D01*
X140840Y42587D01*
X143913Y45660D01*
X147927Y47323D01*
X152273Y47323D01*
X156287Y45660D01*
X159360Y42587D01*
X161023Y38573D01*
X161023Y34227D01*
X159360Y30213D01*
X156287Y27140D01*
X152273Y25477D01*
X147927Y25477D01*
G37*
%LPD*%
%LPC*%
G36*
X352427Y214477D02*
X352427Y214477D01*
X348413Y216140D01*
X345340Y219213D01*
X343677Y223227D01*
X343677Y227573D01*
X345340Y231587D01*
X348413Y234660D01*
X352427Y236323D01*
X356773Y236323D01*
X360787Y234660D01*
X363860Y231587D01*
X365523Y227573D01*
X365523Y223227D01*
X363860Y219213D01*
X360787Y216140D01*
X356773Y214477D01*
X352427Y214477D01*
G37*
%LPD*%
%LPC*%
G36*
X377827Y214477D02*
X377827Y214477D01*
X373813Y216140D01*
X370740Y219213D01*
X369077Y223227D01*
X369077Y227573D01*
X370740Y231587D01*
X373813Y234660D01*
X377827Y236323D01*
X382173Y236323D01*
X386187Y234660D01*
X389260Y231587D01*
X390923Y227573D01*
X390923Y223227D01*
X389260Y219213D01*
X386187Y216140D01*
X382173Y214477D01*
X377827Y214477D01*
G37*
%LPD*%
%LPC*%
G36*
X147927Y50877D02*
X147927Y50877D01*
X143913Y52540D01*
X140840Y55613D01*
X139177Y59627D01*
X139177Y63973D01*
X140840Y67987D01*
X143913Y71060D01*
X147927Y72723D01*
X152273Y72723D01*
X156287Y71060D01*
X159360Y67987D01*
X161023Y63973D01*
X161023Y59627D01*
X159360Y55613D01*
X156287Y52540D01*
X152273Y50877D01*
X147927Y50877D01*
G37*
%LPD*%
%LPC*%
G36*
X370912Y144255D02*
X370912Y144255D01*
X365555Y149612D01*
X365555Y157188D01*
X370912Y162545D01*
X378488Y162545D01*
X383845Y157188D01*
X383845Y149612D01*
X378488Y144255D01*
X370912Y144255D01*
G37*
%LPD*%
%LPC*%
G36*
X370912Y17255D02*
X370912Y17255D01*
X365555Y22612D01*
X365555Y30188D01*
X370912Y35545D01*
X378488Y35545D01*
X383845Y30188D01*
X383845Y22612D01*
X378488Y17255D01*
X370912Y17255D01*
G37*
%LPD*%
%LPC*%
G36*
X370912Y118855D02*
X370912Y118855D01*
X365555Y124212D01*
X365555Y131788D01*
X370912Y137145D01*
X378488Y137145D01*
X383845Y131788D01*
X383845Y124212D01*
X378488Y118855D01*
X370912Y118855D01*
G37*
%LPD*%
%LPC*%
G36*
X370912Y42655D02*
X370912Y42655D01*
X365555Y48012D01*
X365555Y55588D01*
X370912Y60945D01*
X378488Y60945D01*
X383845Y55588D01*
X383845Y48012D01*
X378488Y42655D01*
X370912Y42655D01*
G37*
%LPD*%
%LPC*%
G36*
X370912Y68055D02*
X370912Y68055D01*
X365555Y73412D01*
X365555Y80988D01*
X370912Y86345D01*
X378488Y86345D01*
X383845Y80988D01*
X383845Y73412D01*
X378488Y68055D01*
X370912Y68055D01*
G37*
%LPD*%
%LPC*%
G36*
X50323Y134823D02*
X50323Y134823D01*
X50323Y143461D01*
X57220Y143461D01*
X58799Y143211D01*
X60320Y142716D01*
X61745Y141990D01*
X63039Y141050D01*
X64170Y139919D01*
X65110Y138625D01*
X65836Y137200D01*
X66331Y135679D01*
X66466Y134823D01*
X50323Y134823D01*
G37*
%LPD*%
%LPC*%
G36*
X31134Y134823D02*
X31134Y134823D01*
X31269Y135679D01*
X31764Y137200D01*
X32490Y138625D01*
X33430Y139919D01*
X34561Y141050D01*
X35855Y141990D01*
X37280Y142716D01*
X38801Y143211D01*
X40380Y143461D01*
X47277Y143461D01*
X47277Y134823D01*
X31134Y134823D01*
G37*
%LPD*%
%LPC*%
G36*
X50323Y123139D02*
X50323Y123139D01*
X50323Y131777D01*
X66466Y131777D01*
X66331Y130921D01*
X65836Y129400D01*
X65110Y127975D01*
X64170Y126681D01*
X63039Y125550D01*
X61745Y124610D01*
X60320Y123884D01*
X58799Y123389D01*
X57220Y123139D01*
X50323Y123139D01*
G37*
%LPD*%
%LPC*%
G36*
X40380Y123139D02*
X40380Y123139D01*
X38801Y123389D01*
X37280Y123884D01*
X35855Y124610D01*
X34561Y125550D01*
X33430Y126681D01*
X32490Y127975D01*
X31764Y129400D01*
X31269Y130921D01*
X31134Y131777D01*
X47277Y131777D01*
X47277Y123139D01*
X40380Y123139D01*
G37*
%LPD*%
%LPC*%
G36*
X100823Y63323D02*
X100823Y63323D01*
X100823Y73646D01*
X102096Y73445D01*
X103883Y72864D01*
X105557Y72011D01*
X107078Y70906D01*
X108406Y69578D01*
X109511Y68057D01*
X110364Y66383D01*
X110945Y64596D01*
X111146Y63323D01*
X100823Y63323D01*
G37*
%LPD*%
%LPC*%
G36*
X381523Y252323D02*
X381523Y252323D01*
X381523Y262646D01*
X382796Y262445D01*
X384583Y261864D01*
X386257Y261011D01*
X387778Y259906D01*
X389106Y258578D01*
X390211Y257057D01*
X391064Y255383D01*
X391645Y253596D01*
X391846Y252323D01*
X381523Y252323D01*
G37*
%LPD*%
%LPC*%
G36*
X356123Y252323D02*
X356123Y252323D01*
X356123Y262646D01*
X357396Y262445D01*
X359183Y261864D01*
X360857Y261011D01*
X362378Y259906D01*
X363706Y258578D01*
X364811Y257057D01*
X365664Y255383D01*
X366245Y253596D01*
X366446Y252323D01*
X356123Y252323D01*
G37*
%LPD*%
%LPC*%
G36*
X381523Y249277D02*
X381523Y249277D01*
X391846Y249277D01*
X391645Y248004D01*
X391064Y246217D01*
X390211Y244543D01*
X389106Y243022D01*
X387778Y241694D01*
X386257Y240589D01*
X384583Y239736D01*
X382796Y239155D01*
X381523Y238954D01*
X381523Y249277D01*
G37*
%LPD*%
%LPC*%
G36*
X356123Y249277D02*
X356123Y249277D01*
X366446Y249277D01*
X366245Y248004D01*
X365664Y246217D01*
X364811Y244543D01*
X363706Y243022D01*
X362378Y241694D01*
X360857Y240589D01*
X359183Y239736D01*
X357396Y239155D01*
X356123Y238954D01*
X356123Y249277D01*
G37*
%LPD*%
%LPC*%
G36*
X100823Y60277D02*
X100823Y60277D01*
X111146Y60277D01*
X110945Y59004D01*
X110364Y57217D01*
X109511Y55543D01*
X108406Y54022D01*
X107078Y52694D01*
X105557Y51589D01*
X103883Y50736D01*
X102096Y50155D01*
X100823Y49954D01*
X100823Y60277D01*
G37*
%LPD*%
%LPC*%
G36*
X368154Y252323D02*
X368154Y252323D01*
X368355Y253596D01*
X368936Y255383D01*
X369789Y257057D01*
X370894Y258578D01*
X372222Y259906D01*
X373743Y261011D01*
X375417Y261864D01*
X377204Y262445D01*
X378477Y262646D01*
X378477Y252323D01*
X368154Y252323D01*
G37*
%LPD*%
%LPC*%
G36*
X342754Y252323D02*
X342754Y252323D01*
X342955Y253596D01*
X343536Y255383D01*
X344389Y257057D01*
X345494Y258578D01*
X346822Y259906D01*
X348343Y261011D01*
X350017Y261864D01*
X351804Y262445D01*
X353077Y262646D01*
X353077Y252323D01*
X342754Y252323D01*
G37*
%LPD*%
%LPC*%
G36*
X377204Y239155D02*
X377204Y239155D01*
X375417Y239736D01*
X373743Y240589D01*
X372222Y241694D01*
X370894Y243022D01*
X369789Y244543D01*
X368936Y246217D01*
X368355Y248004D01*
X368154Y249277D01*
X378477Y249277D01*
X378477Y238954D01*
X377204Y239155D01*
G37*
%LPD*%
%LPC*%
G36*
X351804Y239155D02*
X351804Y239155D01*
X350017Y239736D01*
X348343Y240589D01*
X346822Y241694D01*
X345494Y243022D01*
X344389Y244543D01*
X343536Y246217D01*
X342955Y248004D01*
X342754Y249277D01*
X353077Y249277D01*
X353077Y238954D01*
X351804Y239155D01*
G37*
%LPD*%
%LPC*%
G36*
X376223Y104123D02*
X376223Y104123D01*
X376223Y112761D01*
X378909Y112761D01*
X384861Y106809D01*
X384861Y104123D01*
X376223Y104123D01*
G37*
%LPD*%
%LPC*%
G36*
X364539Y104123D02*
X364539Y104123D01*
X364539Y106809D01*
X370491Y112761D01*
X373177Y112761D01*
X373177Y104123D01*
X364539Y104123D01*
G37*
%LPD*%
%LPC*%
G36*
X376223Y92439D02*
X376223Y92439D01*
X376223Y101077D01*
X384861Y101077D01*
X384861Y98391D01*
X378909Y92439D01*
X376223Y92439D01*
G37*
%LPD*%
%LPC*%
G36*
X370491Y92439D02*
X370491Y92439D01*
X364539Y98391D01*
X364539Y101077D01*
X373177Y101077D01*
X373177Y92439D01*
X370491Y92439D01*
G37*
%LPD*%
%LPC*%
G36*
X379999Y250799D02*
X379999Y250799D01*
X379999Y250801D01*
X380001Y250801D01*
X380001Y250799D01*
X379999Y250799D01*
G37*
%LPD*%
%LPC*%
G36*
X374699Y102599D02*
X374699Y102599D01*
X374699Y102601D01*
X374701Y102601D01*
X374701Y102599D01*
X374699Y102599D01*
G37*
%LPD*%
%LPC*%
G36*
X354599Y250799D02*
X354599Y250799D01*
X354599Y250801D01*
X354601Y250801D01*
X354601Y250799D01*
X354599Y250799D01*
G37*
%LPD*%
%LPC*%
G36*
X48799Y133299D02*
X48799Y133299D01*
X48799Y133301D01*
X48801Y133301D01*
X48801Y133299D01*
X48799Y133299D01*
G37*
%LPD*%
D10*
X99300Y36400D03*
X99300Y61800D03*
X124700Y36400D03*
X124700Y61800D03*
X150100Y36400D03*
X150100Y61800D03*
D11*
X374700Y26400D03*
X374700Y51800D03*
X374700Y77200D03*
X374700Y102600D03*
X374700Y128000D03*
X374700Y153400D03*
D12*
X56420Y158700D02*
X41180Y158700D01*
X41180Y133300D02*
X56420Y133300D01*
X56420Y107900D02*
X41180Y107900D01*
X41180Y184100D02*
X56420Y184100D01*
X56420Y209500D02*
X41180Y209500D01*
X41180Y234900D02*
X56420Y234900D01*
X177400Y268880D02*
X177400Y284120D01*
X152000Y284120D02*
X152000Y268880D01*
X126600Y268880D02*
X126600Y284120D01*
X297400Y285220D02*
X297400Y269980D01*
X272000Y269980D02*
X272000Y285220D01*
X246600Y285220D02*
X246600Y269980D01*
D10*
X380000Y200000D03*
X354600Y200000D03*
X380000Y225400D03*
X354600Y225400D03*
X380000Y250800D03*
X354600Y250800D03*
D13*
X160000Y160000D03*
X180000Y40000D03*
X270000Y140000D03*
X220000Y20000D03*
X20000Y80000D03*
X170000Y80000D03*
D14*
X98000Y247900D02*
X126600Y276500D01*
X98000Y247900D02*
X98000Y189000D01*
D13*
X98000Y189000D03*
D14*
X105154Y182154D02*
X98000Y175000D01*
X202644Y277600D02*
X246600Y277600D01*
X107198Y182154D02*
X105154Y182154D01*
D13*
X98000Y175000D03*
D14*
X107198Y182154D02*
X202644Y277600D01*
X252696Y258296D02*
X272000Y277600D01*
X252696Y258296D02*
X192679Y258296D01*
X100000Y165617D02*
X100000Y160000D01*
D13*
X100000Y160000D03*
D14*
X100000Y165617D02*
X192679Y258296D01*
X83314Y52386D02*
X99300Y36400D01*
X83314Y52386D02*
X83314Y62042D01*
X80000Y65356D01*
X35956Y170000D02*
X36340Y170384D01*
X35956Y170000D02*
X30000Y170000D01*
X36340Y170384D02*
X69616Y170384D01*
X30000Y170000D02*
X20000Y180000D01*
X20000Y200000D01*
X29500Y209500D01*
X48800Y209500D01*
X80000Y160000D02*
X80000Y65356D01*
X80000Y160000D02*
X69616Y170384D01*
X93724Y22938D02*
X104876Y22938D01*
X118338Y36400D02*
X124700Y36400D01*
X43290Y76710D02*
X20000Y100000D01*
X104876Y22938D02*
X118338Y36400D01*
X93724Y22938D02*
X76710Y39952D01*
X59306Y76710D02*
X43290Y76710D01*
X20000Y100000D02*
X20000Y150000D01*
X28700Y158700D01*
X48800Y158700D01*
X59306Y76710D02*
X76710Y59306D01*
X76710Y39952D01*
X124700Y61800D02*
X86604Y99896D01*
X86604Y162736D01*
X72352Y176988D02*
X63995Y176988D01*
X56883Y184100D01*
X72352Y176988D02*
X86604Y162736D01*
X56883Y184100D02*
X48800Y184100D01*
D13*
X210000Y250000D03*
D14*
X110000Y150000D01*
X100000Y150000D01*
D13*
X100000Y150000D03*
D14*
X297400Y267600D02*
X297400Y277600D01*
X297400Y267600D02*
X169800Y140000D01*
X100000Y140000D01*
D13*
X100000Y140000D03*
M02*
